%TF.GenerationSoftware,KiCad,Pcbnew,(6.0.2-0)*%
%TF.CreationDate,2022-03-07T18:22:49+01:00*%
%TF.ProjectId,auto-plant-watering,6175746f-2d70-46c6-916e-742d77617465,rev?*%
%TF.SameCoordinates,Original*%
%TF.FileFunction,Legend,Bot*%
%TF.FilePolarity,Positive*%
%FSLAX46Y46*%
G04 Gerber Fmt 4.6, Leading zero omitted, Abs format (unit mm)*
G04 Created by KiCad (PCBNEW (6.0.2-0)) date 2022-03-07 18:22:49*
%MOMM*%
%LPD*%
G01*
G04 APERTURE LIST*
%ADD10C,0.150000*%
G04 APERTURE END LIST*
D10*
X150714285Y-93154761D02*
X150571428Y-93202380D01*
X150333333Y-93202380D01*
X150238095Y-93154761D01*
X150190476Y-93107142D01*
X150142857Y-93011904D01*
X150142857Y-92916666D01*
X150190476Y-92821428D01*
X150238095Y-92773809D01*
X150333333Y-92726190D01*
X150523809Y-92678571D01*
X150619047Y-92630952D01*
X150666666Y-92583333D01*
X150714285Y-92488095D01*
X150714285Y-92392857D01*
X150666666Y-92297619D01*
X150619047Y-92250000D01*
X150523809Y-92202380D01*
X150285714Y-92202380D01*
X150142857Y-92250000D01*
X149714285Y-93202380D02*
X149714285Y-92202380D01*
X149476190Y-92202380D01*
X149333333Y-92250000D01*
X149238095Y-92345238D01*
X149190476Y-92440476D01*
X149142857Y-92630952D01*
X149142857Y-92773809D01*
X149190476Y-92964285D01*
X149238095Y-93059523D01*
X149333333Y-93154761D01*
X149476190Y-93202380D01*
X149714285Y-93202380D01*
X148761904Y-92916666D02*
X148285714Y-92916666D01*
X148857142Y-93202380D02*
X148523809Y-92202380D01*
X148190476Y-93202380D01*
X150690476Y-88404761D02*
X150547619Y-88452380D01*
X150309523Y-88452380D01*
X150214285Y-88404761D01*
X150166666Y-88357142D01*
X150119047Y-88261904D01*
X150119047Y-88166666D01*
X150166666Y-88071428D01*
X150214285Y-88023809D01*
X150309523Y-87976190D01*
X150500000Y-87928571D01*
X150595238Y-87880952D01*
X150642857Y-87833333D01*
X150690476Y-87738095D01*
X150690476Y-87642857D01*
X150642857Y-87547619D01*
X150595238Y-87500000D01*
X150500000Y-87452380D01*
X150261904Y-87452380D01*
X150119047Y-87500000D01*
X149214285Y-88452380D02*
X149690476Y-88452380D01*
X149690476Y-87452380D01*
X148309523Y-88357142D02*
X148357142Y-88404761D01*
X148500000Y-88452380D01*
X148595238Y-88452380D01*
X148738095Y-88404761D01*
X148833333Y-88309523D01*
X148880952Y-88214285D01*
X148928571Y-88023809D01*
X148928571Y-87880952D01*
X148880952Y-87690476D01*
X148833333Y-87595238D01*
X148738095Y-87500000D01*
X148595238Y-87452380D01*
X148500000Y-87452380D01*
X148357142Y-87500000D01*
X148309523Y-87547619D01*
X207988095Y-112000000D02*
X207892857Y-111952380D01*
X207750000Y-111952380D01*
X207607142Y-112000000D01*
X207511904Y-112095238D01*
X207464285Y-112190476D01*
X207416666Y-112380952D01*
X207416666Y-112523809D01*
X207464285Y-112714285D01*
X207511904Y-112809523D01*
X207607142Y-112904761D01*
X207750000Y-112952380D01*
X207845238Y-112952380D01*
X207988095Y-112904761D01*
X208035714Y-112857142D01*
X208035714Y-112523809D01*
X207845238Y-112523809D01*
X208464285Y-112952380D02*
X208464285Y-111952380D01*
X209035714Y-112952380D01*
X209035714Y-111952380D01*
X209511904Y-112952380D02*
X209511904Y-111952380D01*
X209750000Y-111952380D01*
X209892857Y-112000000D01*
X209988095Y-112095238D01*
X210035714Y-112190476D01*
X210083333Y-112380952D01*
X210083333Y-112523809D01*
X210035714Y-112714285D01*
X209988095Y-112809523D01*
X209892857Y-112904761D01*
X209750000Y-112952380D01*
X209511904Y-112952380D01*
M02*
