%!PS-Adobe-3.0
%%Creator: PCBNEW
%%CreationDate: Mon Mar  7 18:23:01 2022
%%Title: ()
%%Pages: 1
%%PageOrder: Ascend
%%BoundingBox: 0 0 596 842
%%DocumentMedia: A4 595 842 0 () ()
%%Orientation: Landscape
%%EndComments
%%BeginProlog
/line { newpath moveto lineto stroke } bind def
/cir0 { newpath 0 360 arc stroke } bind def
/cir1 { newpath 0 360 arc gsave fill grestore stroke } bind def
/cir2 { newpath 0 360 arc gsave fill grestore stroke } bind def
/arc0 { newpath arc stroke } bind def
/arc1 { newpath 4 index 4 index moveto arc closepath gsave fill
    grestore stroke } bind def
/arc2 { newpath 4 index 4 index moveto arc closepath gsave fill
    grestore stroke } bind def
/poly0 { stroke } bind def
/poly1 { closepath gsave fill grestore stroke } bind def
/poly2 { closepath gsave fill grestore stroke } bind def
/rect0 { rectstroke } bind def
/rect1 { rectfill } bind def
/rect2 { rectfill } bind def
/linemode0 { 0 setlinecap 0 setlinejoin 0 setlinewidth } bind def
/linemode1 { 1 setlinecap 1 setlinejoin } bind def
/dashedline { [200] 100 setdash } bind def
/solidline { [] 0 setdash } bind def
/phantomshow { moveto
    /KicadFont findfont 0.000001 scalefont setfont
    show } bind def
/textshow { gsave
    findfont exch scalefont setfont concat 1 scale 0 0 moveto show
    } bind def
/reencodefont {
  findfont dup length dict begin
  { 1 index /FID ne
    { def }
    { pop pop } ifelse
  } forall
  /Encoding ISOLatin1Encoding def
  currentdict
  end } bind def
/KicadFont /Helvetica reencodefont definefont pop
/KicadFont-Bold /Helvetica-Bold reencodefont definefont pop
/KicadFont-Oblique /Helvetica-Oblique reencodefont definefont pop
/KicadFont-BoldOblique /Helvetica-BoldOblique reencodefont definefont pop
%%EndProlog
%%Page: 1 1
%%BeginPageSetup
gsave
0.0072 0.0072 scale
linemode1
82680 0 translate 90 rotate
127.573 setlinewidth
%%EndPageSetup
0 0 0 setrgbcolor
63.7863 setlinewidth
newpath
26890.8 35072.4 moveto
90039.2 35072.4 lineto
stroke
0 0 0 setrgbcolor
newpath
26890.8 80679.6 moveto
26890.8 35072.4 lineto
stroke
0 0 0 setrgbcolor
newpath
90039.2 80679.6 moveto
26890.8 80679.6 lineto
stroke
0 0 0 setrgbcolor
newpath
90039.2 35072.4 moveto
90039.2 80679.6 lineto
stroke
127.573 setlinewidth
51.029 setlinewidth
newpath
64110.1 62755.7 moveto
64620.4 62245.4 lineto
stroke
newpath
64620.4 62755.7 moveto
64110.1 62245.4 lineto
stroke
newpath
64269.6 70410 moveto
64779.8 69899.7 lineto
stroke
newpath
64779.8 70410 moveto
64269.6 69899.7 lineto
stroke
newpath
69213 70888.4 moveto
69723.3 70378.1 lineto
stroke
newpath
69723.3 70888.4 moveto
69213 70378.1 lineto
stroke
newpath
70329.3 74077.7 moveto
70839.5 73567.4 lineto
stroke
newpath
70839.5 74077.7 moveto
70329.3 73567.4 lineto
stroke
newpath
71445.5 71366.8 moveto
71955.8 70856.5 lineto
stroke
newpath
71955.8 71366.8 moveto
71445.5 70856.5 lineto
stroke
newpath
74953.8 55579.7 moveto
75464 55069.4 lineto
stroke
newpath
75464 55579.7 moveto
74953.8 55069.4 lineto
stroke
27796.5 45916.1 255.145 cir0
29569.8 50955.2 255.145 cir0
31190 52575.4 255.145 cir0
32810.1 50955.2 255.145 cir0
34277.2 45916.1 255.145 cir0
36726.6 45916.1 255.145 cir0
38499.9 50955.2 255.145 cir0
40120.1 52575.4 255.145 cir0
41740.2 50955.2 255.145 cir0
43207.3 45916.1 255.145 cir0
45018.8 45916.1 255.145 cir0
46632.6 50955.2 255.145 cir0
48252.8 52575.4 255.145 cir0
49873 50955.2 255.145 cir0
51499.5 45916.1 255.145 cir0
53840.5 45916.1 255.145 cir0
55562.7 50955.2 255.145 cir0
57182.9 52575.4 255.145 cir0
58803.1 50955.2 255.145 cir0
60321.2 45916.1 255.145 cir0
72000.5 53187.7 255.145 cir0
73620.6 51567.5 255.145 cir0
75240.8 53187.7 255.145 cir0
78844.7 52135.2 255.145 cir0
80464.9 53755.4 255.145 cir0
82085.1 52135.2 255.145 cir0
63.7863 setlinewidth
newpath
32791 75130.2 moveto
32791 74492.3 lineto
stroke
newpath
32472.1 74811.3 moveto
33109.9 74811.3 lineto
stroke
newpath
32791 73510 moveto
32791 72872.2 lineto
stroke
newpath
32472.1 73191.1 moveto
33109.9 73191.1 lineto
stroke
newpath
32791 71889.9 moveto
32791 71252 lineto
stroke
newpath
32472.1 71570.9 moveto
33109.9 71570.9 lineto
stroke
newpath
32791 70269.7 moveto
32791 69631.8 lineto
stroke
newpath
32472.1 69950.7 moveto
33109.9 69950.7 lineto
stroke
newpath
32791 67260.6 moveto
32791 66622.7 lineto
stroke
newpath
32472.1 66941.6 moveto
33109.9 66941.6 lineto
stroke
newpath
32791 65640.4 moveto
32791 65002.5 lineto
stroke
newpath
32472.1 65321.5 moveto
33109.9 65321.5 lineto
stroke
newpath
32791 64020.2 moveto
32791 63382.4 lineto
stroke
newpath
32472.1 63701.3 moveto
33109.9 63701.3 lineto
stroke
newpath
36548 74798.5 moveto
36548 74160.6 lineto
stroke
newpath
36229.1 74479.6 moveto
36867 74479.6 lineto
stroke
newpath
36548 73178.3 moveto
36548 72540.5 lineto
stroke
newpath
36229.1 72859.4 moveto
36867 72859.4 lineto
stroke
newpath
36548 71558.2 moveto
36548 70920.3 lineto
stroke
newpath
36229.1 71239.2 moveto
36867 71239.2 lineto
stroke
newpath
36548 69938 moveto
36548 69300.1 lineto
stroke
newpath
36229.1 69619.1 moveto
36867 69619.1 lineto
stroke
newpath
36548 68317.8 moveto
36548 67680 lineto
stroke
newpath
36229.1 67998.9 moveto
36867 67998.9 lineto
stroke
newpath
36548 66697.6 moveto
36548 66059.8 lineto
stroke
newpath
36229.1 66378.7 moveto
36867 66378.7 lineto
stroke
newpath
36548 65077.5 moveto
36548 64439.6 lineto
stroke
newpath
36229.1 64758.5 moveto
36867 64758.5 lineto
stroke
newpath
36548 63457.3 moveto
36548 62819.4 lineto
stroke
newpath
36229.1 63138.4 moveto
36867 63138.4 lineto
stroke
newpath
51129.6 74798.5 moveto
51129.6 74160.6 lineto
stroke
newpath
50810.6 74479.6 moveto
51448.5 74479.6 lineto
stroke
newpath
51129.6 73178.3 moveto
51129.6 72540.5 lineto
stroke
newpath
50810.6 72859.4 moveto
51448.5 72859.4 lineto
stroke
newpath
51129.6 71558.2 moveto
51129.6 70920.3 lineto
stroke
newpath
50810.6 71239.2 moveto
51448.5 71239.2 lineto
stroke
newpath
51129.6 69938 moveto
51129.6 69300.1 lineto
stroke
newpath
50810.6 69619.1 moveto
51448.5 69619.1 lineto
stroke
newpath
51129.6 68317.8 moveto
51129.6 67680 lineto
stroke
newpath
50810.6 67998.9 moveto
51448.5 67998.9 lineto
stroke
newpath
51129.6 66697.6 moveto
51129.6 66059.8 lineto
stroke
newpath
50810.6 66378.7 moveto
51448.5 66378.7 lineto
stroke
newpath
51129.6 65077.5 moveto
51129.6 64439.6 lineto
stroke
newpath
50810.6 64758.5 moveto
51448.5 64758.5 lineto
stroke
newpath
51129.6 63457.3 moveto
51129.6 62819.4 lineto
stroke
newpath
50810.6 63138.4 moveto
51448.5 63138.4 lineto
stroke
newpath
54637.8 72253.4 moveto
54637.8 71615.6 lineto
stroke
newpath
54318.9 71934.5 moveto
54956.8 71934.5 lineto
stroke
newpath
54637.8 70633.3 moveto
54637.8 69995.4 lineto
stroke
newpath
54318.9 70314.3 moveto
54956.8 70314.3 lineto
stroke
newpath
65162.6 54292.7 moveto
65162.6 53654.8 lineto
stroke
newpath
64843.6 53973.8 moveto
65481.5 53973.8 lineto
stroke
newpath
65162.6 51103.4 moveto
65162.6 50465.5 lineto
stroke
newpath
64843.6 50784.4 moveto
65481.5 50784.4 lineto
stroke
newpath
79131.8 73822.6 moveto
79131.8 73184.7 lineto
stroke
newpath
78812.8 73503.6 moveto
79450.7 73503.6 lineto
stroke
127.573 setlinewidth
newpath
78876.6 74141.5 moveto
78876.6 72865.8 lineto
stroke
newpath
79386.9 74141.5 moveto
79386.9 72865.8 lineto
stroke
79131.8 72865.8 255.145 180 360 arc0
79131.8 74141.5 255.145 0 180 arc0
63.7863 setlinewidth
newpath
82129.7 75736.2 moveto
82129.7 75098.3 lineto
stroke
newpath
81810.8 75417.2 moveto
82448.6 75417.2 lineto
stroke
127.573 setlinewidth
newpath
82767.6 75672.4 moveto
81491.9 75672.4 lineto
stroke
newpath
82767.6 75162.1 moveto
81491.9 75162.1 lineto
stroke
81491.9 75417.2 255.145 450 630 arc0
82767.6 75417.2 255.145 270 450 arc0
63.7863 setlinewidth
newpath
82129.7 71909 moveto
82129.7 71271.1 lineto
stroke
newpath
81810.8 71590.1 moveto
82448.6 71590.1 lineto
stroke
127.573 setlinewidth
newpath
82767.6 71845.2 moveto
81491.9 71845.2 lineto
stroke
newpath
82767.6 71334.9 moveto
81491.9 71334.9 lineto
stroke
81491.9 71590.1 255.145 450 630 arc0
82767.6 71590.1 255.145 270 450 arc0
70.1649 setlinewidth
newpath
67866.4 75571 moveto
67866.4 76067.2 lineto
67370.3 76067.2 lineto
67370.3 75571 lineto
67866.4 75571 lineto
poly0
newpath
67866.4 73950.8 moveto
67866.4 74447 lineto
67370.3 74447 lineto
67370.3 73950.8 lineto
67866.4 73950.8 lineto
poly0
newpath
67866.4 72330.7 moveto
67866.4 72826.8 lineto
67370.3 72826.8 lineto
67370.3 72330.7 lineto
67866.4 72330.7 lineto
poly0
84.1979 setlinewidth
newpath
29273.2 39435.4 moveto
29694.2 39856.4 lineto
29273.2 40277.4 lineto
28852.2 39856.4 lineto
29273.2 39435.4 lineto
poly0
newpath
32462.5 39435.4 moveto
32883.5 39856.4 lineto
32462.5 40277.4 lineto
32041.5 39856.4 lineto
32462.5 39435.4 lineto
poly0
newpath
37884.3 39435.4 moveto
38305.3 39856.4 lineto
37884.3 40277.4 lineto
37463.4 39856.4 lineto
37884.3 39435.4 lineto
poly0
newpath
41073.7 39435.4 moveto
41494.7 39856.4 lineto
41073.7 40277.4 lineto
40652.7 39856.4 lineto
41073.7 39435.4 lineto
poly0
newpath
46495.5 39435.4 moveto
46916.5 39856.4 lineto
46495.5 40277.4 lineto
46074.5 39856.4 lineto
46495.5 39435.4 lineto
poly0
newpath
49684.8 39435.4 moveto
50105.8 39856.4 lineto
49684.8 40277.4 lineto
49263.8 39856.4 lineto
49684.8 39435.4 lineto
poly0
newpath
55266.1 39435.4 moveto
55687.1 39856.4 lineto
55266.1 40277.4 lineto
54845.1 39856.4 lineto
55266.1 39435.4 lineto
poly0
newpath
58455.4 39435.4 moveto
58876.4 39856.4 lineto
58455.4 40277.4 lineto
58034.4 39856.4 lineto
58455.4 39435.4 lineto
poly0
newpath
68182.8 39435.4 moveto
68603.8 39856.4 lineto
68182.8 40277.4 lineto
67761.9 39856.4 lineto
68182.8 39435.4 lineto
poly0
newpath
71372.2 39435.4 moveto
71793.1 39856.4 lineto
71372.2 40277.4 lineto
70951.2 39856.4 lineto
71372.2 39435.4 lineto
poly0
newpath
76006.2 39435.4 moveto
76427.2 39856.4 lineto
76006.2 40277.4 lineto
75585.2 39856.4 lineto
76006.2 39435.4 lineto
poly0
newpath
79195.5 39435.4 moveto
79616.5 39856.4 lineto
79195.5 40277.4 lineto
78774.6 39856.4 lineto
79195.5 39435.4 lineto
poly0
newpath
83810.5 39435.4 moveto
84231.5 39856.4 lineto
83810.5 40277.4 lineto
83389.5 39856.4 lineto
83810.5 39435.4 lineto
poly0
newpath
86999.8 39435.4 moveto
87420.8 39856.4 lineto
86999.8 40277.4 lineto
86578.8 39856.4 lineto
86999.8 39435.4 lineto
poly0
127.573 setlinewidth
78.7404 setlinewidth
0 0 0 setrgbcolor
0 0 0 setrgbcolor
newpath
27873.1 33818.2 moveto
27873.1 34605.6 lineto
28060.6 34605.6 lineto
28173.1 34568.1 lineto
28248.1 34493.1 lineto
28285.6 34418.1 lineto
28323.1 34268.1 lineto
28323.1 34155.6 lineto
28285.6 34005.6 lineto
28248.1 33930.6 lineto
28173.1 33855.7 lineto
28060.6 33818.2 lineto
27873.1 33818.2 lineto
stroke
newpath
28660.5 33818.2 moveto
28660.5 34343.1 lineto
stroke
newpath
28660.5 34193.1 moveto
28698 34268.1 lineto
28735.5 34305.6 lineto
28810.5 34343.1 lineto
28885.5 34343.1 lineto
stroke
newpath
29148 33818.2 moveto
29148 34343.1 lineto
stroke
newpath
29148 34605.6 moveto
29110.5 34568.1 lineto
29148 34530.6 lineto
29185.5 34568.1 lineto
29148 34605.6 lineto
29148 34530.6 lineto
stroke
newpath
29635.4 33818.2 moveto
29560.4 33855.7 lineto
29522.9 33930.6 lineto
29522.9 34605.6 lineto
stroke
newpath
30047.9 33818.2 moveto
29972.9 33855.7 lineto
29935.4 33930.6 lineto
29935.4 34605.6 lineto
stroke
newpath
30947.8 33818.2 moveto
30947.8 34605.6 lineto
31210.2 34043.1 lineto
31472.7 34605.6 lineto
31472.7 33818.2 lineto
stroke
newpath
32185.1 33818.2 moveto
32185.1 34230.6 lineto
32147.6 34305.6 lineto
32072.6 34343.1 lineto
31922.6 34343.1 lineto
31847.6 34305.6 lineto
stroke
newpath
32185.1 33855.7 moveto
32110.1 33818.2 lineto
31922.6 33818.2 lineto
31847.6 33855.7 lineto
31810.1 33930.6 lineto
31810.1 34005.6 lineto
31847.6 34080.6 lineto
31922.6 34118.1 lineto
32110.1 34118.1 lineto
32185.1 34155.6 lineto
stroke
newpath
32560.1 34343.1 moveto
32560.1 33555.7 lineto
stroke
newpath
32560.1 34305.6 moveto
32635 34343.1 lineto
32785 34343.1 lineto
32860 34305.6 lineto
32897.5 34268.1 lineto
32935 34193.1 lineto
32935 33968.1 lineto
32897.5 33893.1 lineto
32860 33855.7 lineto
32785 33818.2 lineto
32635 33818.2 lineto
32560.1 33855.7 lineto
stroke
newpath
33272.5 33893.1 moveto
33310 33855.7 lineto
33272.5 33818.2 lineto
33235 33855.7 lineto
33272.5 33893.1 lineto
33272.5 33818.2 lineto
stroke
newpath
33272.5 34305.6 moveto
33310 34268.1 lineto
33272.5 34230.6 lineto
33235 34268.1 lineto
33272.5 34305.6 lineto
33272.5 34230.6 lineto
stroke
51.029 setlinewidth
newpath
26348.6 32776 moveto
26858.9 32265.7 lineto
stroke
newpath
26858.9 32776 moveto
26348.6 32265.7 lineto
stroke
127.573 setlinewidth
78.7404 setlinewidth
0 0 0 setrgbcolor
0 0 0 setrgbcolor
newpath
28023.1 32952 moveto
28098.1 32952 lineto
28173.1 32914.5 lineto
28210.6 32877 lineto
28248.1 32802 lineto
28285.6 32652.1 lineto
28285.6 32464.6 lineto
28248.1 32314.6 lineto
28210.6 32239.6 lineto
28173.1 32202.1 lineto
28098.1 32164.6 lineto
28023.1 32164.6 lineto
27948.1 32202.1 lineto
27910.6 32239.6 lineto
27873.1 32314.6 lineto
27835.6 32464.6 lineto
27835.6 32652.1 lineto
27873.1 32802 lineto
27910.6 32877 lineto
27948.1 32914.5 lineto
28023.1 32952 lineto
stroke
newpath
28623 32239.6 moveto
28660.5 32202.1 lineto
28623 32164.6 lineto
28585.5 32202.1 lineto
28623 32239.6 lineto
28623 32164.6 lineto
stroke
newpath
29110.5 32614.6 moveto
29035.5 32652.1 lineto
28998 32689.5 lineto
28960.5 32764.5 lineto
28960.5 32802 lineto
28998 32877 lineto
29035.5 32914.5 lineto
29110.5 32952 lineto
29260.5 32952 lineto
29335.5 32914.5 lineto
29372.9 32877 lineto
29410.4 32802 lineto
29410.4 32764.5 lineto
29372.9 32689.5 lineto
29335.5 32652.1 lineto
29260.5 32614.6 lineto
29110.5 32614.6 lineto
29035.5 32577.1 lineto
28998 32539.6 lineto
28960.5 32464.6 lineto
28960.5 32314.6 lineto
28998 32239.6 lineto
29035.5 32202.1 lineto
29110.5 32164.6 lineto
29260.5 32164.6 lineto
29335.5 32202.1 lineto
29372.9 32239.6 lineto
29410.4 32314.6 lineto
29410.4 32464.6 lineto
29372.9 32539.6 lineto
29335.5 32577.1 lineto
29260.5 32614.6 lineto
stroke
newpath
29897.9 32952 moveto
29972.9 32952 lineto
30047.9 32914.5 lineto
30085.4 32877 lineto
30122.9 32802 lineto
30160.4 32652.1 lineto
30160.4 32464.6 lineto
30122.9 32314.6 lineto
30085.4 32239.6 lineto
30047.9 32202.1 lineto
29972.9 32164.6 lineto
29897.9 32164.6 lineto
29822.9 32202.1 lineto
29785.4 32239.6 lineto
29747.9 32314.6 lineto
29710.4 32464.6 lineto
29710.4 32652.1 lineto
29747.9 32802 lineto
29785.4 32877 lineto
29822.9 32914.5 lineto
29897.9 32952 lineto
stroke
newpath
30647.8 32952 moveto
30722.8 32952 lineto
30797.8 32914.5 lineto
30835.3 32877 lineto
30872.8 32802 lineto
30910.3 32652.1 lineto
30910.3 32464.6 lineto
30872.8 32314.6 lineto
30835.3 32239.6 lineto
30797.8 32202.1 lineto
30722.8 32164.6 lineto
30647.8 32164.6 lineto
30572.8 32202.1 lineto
30535.3 32239.6 lineto
30497.8 32314.6 lineto
30460.3 32464.6 lineto
30460.3 32652.1 lineto
30497.8 32802 lineto
30535.3 32877 lineto
30572.8 32914.5 lineto
30647.8 32952 lineto
stroke
newpath
31247.7 32164.6 moveto
31247.7 32689.5 lineto
stroke
newpath
31247.7 32614.6 moveto
31285.2 32652.1 lineto
31360.2 32689.5 lineto
31472.7 32689.5 lineto
31547.7 32652.1 lineto
31585.2 32577.1 lineto
31585.2 32164.6 lineto
stroke
newpath
31585.2 32577.1 moveto
31622.7 32652.1 lineto
31697.7 32689.5 lineto
31810.1 32689.5 lineto
31885.1 32652.1 lineto
31922.6 32577.1 lineto
31922.6 32164.6 lineto
stroke
newpath
32297.6 32164.6 moveto
32297.6 32689.5 lineto
stroke
newpath
32297.6 32614.6 moveto
32335.1 32652.1 lineto
32410.1 32689.5 lineto
32522.6 32689.5 lineto
32597.5 32652.1 lineto
32635 32577.1 lineto
32635 32164.6 lineto
stroke
newpath
32635 32577.1 moveto
32672.5 32652.1 lineto
32747.5 32689.5 lineto
32860 32689.5 lineto
32935 32652.1 lineto
32972.5 32577.1 lineto
32972.5 32164.6 lineto
stroke
newpath
34509.8 32989.5 moveto
33834.9 31977.1 lineto
stroke
newpath
35522.2 32952 moveto
35597.2 32952 lineto
35672.2 32914.5 lineto
35709.7 32877 lineto
35747.2 32802 lineto
35784.6 32652.1 lineto
35784.6 32464.6 lineto
35747.2 32314.6 lineto
35709.7 32239.6 lineto
35672.2 32202.1 lineto
35597.2 32164.6 lineto
35522.2 32164.6 lineto
35447.2 32202.1 lineto
35409.7 32239.6 lineto
35372.2 32314.6 lineto
35334.7 32464.6 lineto
35334.7 32652.1 lineto
35372.2 32802 lineto
35409.7 32877 lineto
35447.2 32914.5 lineto
35522.2 32952 lineto
stroke
newpath
36122.1 32239.6 moveto
36159.6 32202.1 lineto
36122.1 32164.6 lineto
36084.6 32202.1 lineto
36122.1 32239.6 lineto
36122.1 32164.6 lineto
stroke
newpath
36647 32952 moveto
36722 32952 lineto
36797 32914.5 lineto
36834.5 32877 lineto
36872 32802 lineto
36909.5 32652.1 lineto
36909.5 32464.6 lineto
36872 32314.6 lineto
36834.5 32239.6 lineto
36797 32202.1 lineto
36722 32164.6 lineto
36647 32164.6 lineto
36572 32202.1 lineto
36534.6 32239.6 lineto
36497.1 32314.6 lineto
36459.6 32464.6 lineto
36459.6 32652.1 lineto
36497.1 32802 lineto
36534.6 32877 lineto
36572 32914.5 lineto
36647 32952 lineto
stroke
newpath
37172 32952 moveto
37659.4 32952 lineto
37396.9 32652.1 lineto
37509.4 32652.1 lineto
37584.4 32614.6 lineto
37621.9 32577.1 lineto
37659.4 32502.1 lineto
37659.4 32314.6 lineto
37621.9 32239.6 lineto
37584.4 32202.1 lineto
37509.4 32164.6 lineto
37284.5 32164.6 lineto
37209.5 32202.1 lineto
37172 32239.6 lineto
stroke
newpath
38409.3 32164.6 moveto
37959.4 32164.6 lineto
stroke
newpath
38184.3 32164.6 moveto
38184.3 32952 lineto
38109.4 32839.5 lineto
38034.4 32764.5 lineto
37959.4 32727 lineto
stroke
newpath
39121.7 32952 moveto
38746.8 32952 lineto
38709.3 32577.1 lineto
38746.8 32614.6 lineto
38821.8 32652.1 lineto
39009.2 32652.1 lineto
39084.2 32614.6 lineto
39121.7 32577.1 lineto
39159.2 32502.1 lineto
39159.2 32314.6 lineto
39121.7 32239.6 lineto
39084.2 32202.1 lineto
39009.2 32164.6 lineto
38821.8 32164.6 lineto
38746.8 32202.1 lineto
38709.3 32239.6 lineto
stroke
newpath
39459.2 32952 moveto
39459.2 32802 lineto
stroke
newpath
39759.2 32952 moveto
39759.2 32802 lineto
stroke
newpath
40921.5 31864.7 moveto
40884 31902.1 lineto
40809 32014.6 lineto
40771.5 32089.6 lineto
40734 32202.1 lineto
40696.5 32389.6 lineto
40696.5 32539.6 lineto
40734 32727 lineto
40771.5 32839.5 lineto
40809 32914.5 lineto
40884 33027 lineto
40921.5 33064.5 lineto
stroke
newpath
41558.9 32952 moveto
41408.9 32952 lineto
41334 32914.5 lineto
41296.5 32877 lineto
41221.5 32764.5 lineto
41184 32614.6 lineto
41184 32314.6 lineto
41221.5 32239.6 lineto
41259 32202.1 lineto
41334 32164.6 lineto
41483.9 32164.6 lineto
41558.9 32202.1 lineto
41596.4 32239.6 lineto
41633.9 32314.6 lineto
41633.9 32502.1 lineto
41596.4 32577.1 lineto
41558.9 32614.6 lineto
41483.9 32652.1 lineto
41334 32652.1 lineto
41259 32614.6 lineto
41221.5 32577.1 lineto
41184 32502.1 lineto
stroke
newpath
42571.3 32164.6 moveto
42571.3 32952 lineto
stroke
newpath
42908.8 32164.6 moveto
42908.8 32577.1 lineto
42871.3 32652.1 lineto
42796.3 32689.5 lineto
42683.8 32689.5 lineto
42608.8 32652.1 lineto
42571.3 32614.6 lineto
stroke
newpath
43396.2 32164.6 moveto
43321.2 32202.1 lineto
43283.7 32239.6 lineto
43246.2 32314.6 lineto
43246.2 32539.6 lineto
43283.7 32614.6 lineto
43321.2 32652.1 lineto
43396.2 32689.5 lineto
43508.7 32689.5 lineto
43583.7 32652.1 lineto
43621.2 32614.6 lineto
43658.7 32539.6 lineto
43658.7 32314.6 lineto
43621.2 32239.6 lineto
43583.7 32202.1 lineto
43508.7 32164.6 lineto
43396.2 32164.6 lineto
stroke
newpath
44108.6 32164.6 moveto
44033.6 32202.1 lineto
43996.1 32277.1 lineto
43996.1 32952 lineto
stroke
newpath
44708.5 32202.1 moveto
44633.5 32164.6 lineto
44483.6 32164.6 lineto
44408.6 32202.1 lineto
44371.1 32277.1 lineto
44371.1 32577.1 lineto
44408.6 32652.1 lineto
44483.6 32689.5 lineto
44633.5 32689.5 lineto
44708.5 32652.1 lineto
44746 32577.1 lineto
44746 32502.1 lineto
44371.1 32427.1 lineto
stroke
newpath
45046 32202.1 moveto
45121 32164.6 lineto
45271 32164.6 lineto
45346 32202.1 lineto
45383.4 32277.1 lineto
45383.4 32314.6 lineto
45346 32389.6 lineto
45271 32427.1 lineto
45158.5 32427.1 lineto
45083.5 32464.6 lineto
45046 32539.6 lineto
45046 32577.1 lineto
45083.5 32652.1 lineto
45158.5 32689.5 lineto
45271 32689.5 lineto
45346 32652.1 lineto
stroke
newpath
45645.9 31864.7 moveto
45683.4 31902.1 lineto
45758.4 32014.6 lineto
45795.9 32089.6 lineto
45833.4 32202.1 lineto
45870.9 32389.6 lineto
45870.9 32539.6 lineto
45833.4 32727 lineto
45795.9 32839.5 lineto
45758.4 32914.5 lineto
45683.4 33027 lineto
45645.9 33064.5 lineto
stroke
51.029 setlinewidth
26603.7 31481.4 255.145 cir0
127.573 setlinewidth
78.7404 setlinewidth
0 0 0 setrgbcolor
0 0 0 setrgbcolor
newpath
28023.1 31912.6 moveto
28098.1 31912.6 lineto
28173.1 31875.1 lineto
28210.6 31837.7 lineto
28248.1 31762.7 lineto
28285.6 31612.7 lineto
28285.6 31425.2 lineto
28248.1 31275.2 lineto
28210.6 31200.2 lineto
28173.1 31162.7 lineto
28098.1 31125.2 lineto
28023.1 31125.2 lineto
27948.1 31162.7 lineto
27910.6 31200.2 lineto
27873.1 31275.2 lineto
27835.6 31425.2 lineto
27835.6 31612.7 lineto
27873.1 31762.7 lineto
27910.6 31837.7 lineto
27948.1 31875.1 lineto
28023.1 31912.6 lineto
stroke
newpath
28623 31200.2 moveto
28660.5 31162.7 lineto
28623 31125.2 lineto
28585.5 31162.7 lineto
28623 31200.2 lineto
28623 31125.2 lineto
stroke
newpath
29110.5 31575.2 moveto
29035.5 31612.7 lineto
28998 31650.2 lineto
28960.5 31725.2 lineto
28960.5 31762.7 lineto
28998 31837.7 lineto
29035.5 31875.1 lineto
29110.5 31912.6 lineto
29260.5 31912.6 lineto
29335.5 31875.1 lineto
29372.9 31837.7 lineto
29410.4 31762.7 lineto
29410.4 31725.2 lineto
29372.9 31650.2 lineto
29335.5 31612.7 lineto
29260.5 31575.2 lineto
29110.5 31575.2 lineto
29035.5 31537.7 lineto
28998 31500.2 lineto
28960.5 31425.2 lineto
28960.5 31275.2 lineto
28998 31200.2 lineto
29035.5 31162.7 lineto
29110.5 31125.2 lineto
29260.5 31125.2 lineto
29335.5 31162.7 lineto
29372.9 31200.2 lineto
29410.4 31275.2 lineto
29410.4 31425.2 lineto
29372.9 31500.2 lineto
29335.5 31537.7 lineto
29260.5 31575.2 lineto
stroke
newpath
29897.9 31912.6 moveto
29972.9 31912.6 lineto
30047.9 31875.1 lineto
30085.4 31837.7 lineto
30122.9 31762.7 lineto
30160.4 31612.7 lineto
30160.4 31425.2 lineto
30122.9 31275.2 lineto
30085.4 31200.2 lineto
30047.9 31162.7 lineto
29972.9 31125.2 lineto
29897.9 31125.2 lineto
29822.9 31162.7 lineto
29785.4 31200.2 lineto
29747.9 31275.2 lineto
29710.4 31425.2 lineto
29710.4 31612.7 lineto
29747.9 31762.7 lineto
29785.4 31837.7 lineto
29822.9 31875.1 lineto
29897.9 31912.6 lineto
stroke
newpath
30647.8 31912.6 moveto
30722.8 31912.6 lineto
30797.8 31875.1 lineto
30835.3 31837.7 lineto
30872.8 31762.7 lineto
30910.3 31612.7 lineto
30910.3 31425.2 lineto
30872.8 31275.2 lineto
30835.3 31200.2 lineto
30797.8 31162.7 lineto
30722.8 31125.2 lineto
30647.8 31125.2 lineto
30572.8 31162.7 lineto
30535.3 31200.2 lineto
30497.8 31275.2 lineto
30460.3 31425.2 lineto
30460.3 31612.7 lineto
30497.8 31762.7 lineto
30535.3 31837.7 lineto
30572.8 31875.1 lineto
30647.8 31912.6 lineto
stroke
newpath
31247.7 31125.2 moveto
31247.7 31650.2 lineto
stroke
newpath
31247.7 31575.2 moveto
31285.2 31612.7 lineto
31360.2 31650.2 lineto
31472.7 31650.2 lineto
31547.7 31612.7 lineto
31585.2 31537.7 lineto
31585.2 31125.2 lineto
stroke
newpath
31585.2 31537.7 moveto
31622.7 31612.7 lineto
31697.7 31650.2 lineto
31810.1 31650.2 lineto
31885.1 31612.7 lineto
31922.6 31537.7 lineto
31922.6 31125.2 lineto
stroke
newpath
32297.6 31125.2 moveto
32297.6 31650.2 lineto
stroke
newpath
32297.6 31575.2 moveto
32335.1 31612.7 lineto
32410.1 31650.2 lineto
32522.6 31650.2 lineto
32597.5 31612.7 lineto
32635 31537.7 lineto
32635 31125.2 lineto
stroke
newpath
32635 31537.7 moveto
32672.5 31612.7 lineto
32747.5 31650.2 lineto
32860 31650.2 lineto
32935 31612.7 lineto
32972.5 31537.7 lineto
32972.5 31125.2 lineto
stroke
newpath
34509.8 31950.1 moveto
33834.9 30937.8 lineto
stroke
newpath
35522.2 31912.6 moveto
35597.2 31912.6 lineto
35672.2 31875.1 lineto
35709.7 31837.7 lineto
35747.2 31762.7 lineto
35784.6 31612.7 lineto
35784.6 31425.2 lineto
35747.2 31275.2 lineto
35709.7 31200.2 lineto
35672.2 31162.7 lineto
35597.2 31125.2 lineto
35522.2 31125.2 lineto
35447.2 31162.7 lineto
35409.7 31200.2 lineto
35372.2 31275.2 lineto
35334.7 31425.2 lineto
35334.7 31612.7 lineto
35372.2 31762.7 lineto
35409.7 31837.7 lineto
35447.2 31875.1 lineto
35522.2 31912.6 lineto
stroke
newpath
36122.1 31200.2 moveto
36159.6 31162.7 lineto
36122.1 31125.2 lineto
36084.6 31162.7 lineto
36122.1 31200.2 lineto
36122.1 31125.2 lineto
stroke
newpath
36647 31912.6 moveto
36722 31912.6 lineto
36797 31875.1 lineto
36834.5 31837.7 lineto
36872 31762.7 lineto
36909.5 31612.7 lineto
36909.5 31425.2 lineto
36872 31275.2 lineto
36834.5 31200.2 lineto
36797 31162.7 lineto
36722 31125.2 lineto
36647 31125.2 lineto
36572 31162.7 lineto
36534.6 31200.2 lineto
36497.1 31275.2 lineto
36459.6 31425.2 lineto
36459.6 31612.7 lineto
36497.1 31762.7 lineto
36534.6 31837.7 lineto
36572 31875.1 lineto
36647 31912.6 lineto
stroke
newpath
37172 31912.6 moveto
37659.4 31912.6 lineto
37396.9 31612.7 lineto
37509.4 31612.7 lineto
37584.4 31575.2 lineto
37621.9 31537.7 lineto
37659.4 31462.7 lineto
37659.4 31275.2 lineto
37621.9 31200.2 lineto
37584.4 31162.7 lineto
37509.4 31125.2 lineto
37284.5 31125.2 lineto
37209.5 31162.7 lineto
37172 31200.2 lineto
stroke
newpath
38409.3 31125.2 moveto
37959.4 31125.2 lineto
stroke
newpath
38184.3 31125.2 moveto
38184.3 31912.6 lineto
38109.4 31800.2 lineto
38034.4 31725.2 lineto
37959.4 31687.7 lineto
stroke
newpath
39121.7 31912.6 moveto
38746.8 31912.6 lineto
38709.3 31537.7 lineto
38746.8 31575.2 lineto
38821.8 31612.7 lineto
39009.2 31612.7 lineto
39084.2 31575.2 lineto
39121.7 31537.7 lineto
39159.2 31462.7 lineto
39159.2 31275.2 lineto
39121.7 31200.2 lineto
39084.2 31162.7 lineto
39009.2 31125.2 lineto
38821.8 31125.2 lineto
38746.8 31162.7 lineto
38709.3 31200.2 lineto
stroke
newpath
39459.2 31912.6 moveto
39459.2 31762.7 lineto
stroke
newpath
39759.2 31912.6 moveto
39759.2 31762.7 lineto
stroke
newpath
40921.5 30825.3 moveto
40884 30862.8 lineto
40809 30975.3 lineto
40771.5 31050.3 lineto
40734 31162.7 lineto
40696.5 31350.2 lineto
40696.5 31500.2 lineto
40734 31687.7 lineto
40771.5 31800.2 lineto
40809 31875.1 lineto
40884 31987.6 lineto
40921.5 32025.1 lineto
stroke
newpath
41184 31837.7 moveto
41221.5 31875.1 lineto
41296.5 31912.6 lineto
41483.9 31912.6 lineto
41558.9 31875.1 lineto
41596.4 31837.7 lineto
41633.9 31762.7 lineto
41633.9 31687.7 lineto
41596.4 31575.2 lineto
41146.5 31125.2 lineto
41633.9 31125.2 lineto
stroke
newpath
42308.8 31912.6 moveto
42158.9 31912.6 lineto
42083.9 31875.1 lineto
42046.4 31837.7 lineto
41971.4 31725.2 lineto
41933.9 31575.2 lineto
41933.9 31275.2 lineto
41971.4 31200.2 lineto
42008.9 31162.7 lineto
42083.9 31125.2 lineto
42233.8 31125.2 lineto
42308.8 31162.7 lineto
42346.3 31200.2 lineto
42383.8 31275.2 lineto
42383.8 31462.7 lineto
42346.3 31537.7 lineto
42308.8 31575.2 lineto
42233.8 31612.7 lineto
42083.9 31612.7 lineto
42008.9 31575.2 lineto
41971.4 31537.7 lineto
41933.9 31462.7 lineto
stroke
newpath
43321.2 31125.2 moveto
43321.2 31912.6 lineto
stroke
newpath
43658.7 31125.2 moveto
43658.7 31537.7 lineto
43621.2 31612.7 lineto
43546.2 31650.2 lineto
43433.7 31650.2 lineto
43358.7 31612.7 lineto
43321.2 31575.2 lineto
stroke
newpath
44146.1 31125.2 moveto
44071.1 31162.7 lineto
44033.6 31200.2 lineto
43996.1 31275.2 lineto
43996.1 31500.2 lineto
44033.6 31575.2 lineto
44071.1 31612.7 lineto
44146.1 31650.2 lineto
44258.6 31650.2 lineto
44333.6 31612.7 lineto
44371.1 31575.2 lineto
44408.6 31500.2 lineto
44408.6 31275.2 lineto
44371.1 31200.2 lineto
44333.6 31162.7 lineto
44258.6 31125.2 lineto
44146.1 31125.2 lineto
stroke
newpath
44858.5 31125.2 moveto
44783.5 31162.7 lineto
44746 31237.7 lineto
44746 31912.6 lineto
stroke
newpath
45458.4 31162.7 moveto
45383.4 31125.2 lineto
45233.5 31125.2 lineto
45158.5 31162.7 lineto
45121 31237.7 lineto
45121 31537.7 lineto
45158.5 31612.7 lineto
45233.5 31650.2 lineto
45383.4 31650.2 lineto
45458.4 31612.7 lineto
45495.9 31537.7 lineto
45495.9 31462.7 lineto
45121 31387.7 lineto
stroke
newpath
45795.9 31162.7 moveto
45870.9 31125.2 lineto
46020.9 31125.2 lineto
46095.9 31162.7 lineto
46133.4 31237.7 lineto
46133.4 31275.2 lineto
46095.9 31350.2 lineto
46020.9 31387.7 lineto
45908.4 31387.7 lineto
45833.4 31425.2 lineto
45795.9 31500.2 lineto
45795.9 31537.7 lineto
45833.4 31612.7 lineto
45908.4 31650.2 lineto
46020.9 31650.2 lineto
46095.9 31612.7 lineto
stroke
newpath
46395.8 30825.3 moveto
46433.3 30862.8 lineto
46508.3 30975.3 lineto
46545.8 31050.3 lineto
46583.3 31162.7 lineto
46620.8 31350.2 lineto
46620.8 31500.2 lineto
46583.3 31687.7 lineto
46545.8 31800.2 lineto
46508.3 31875.1 lineto
46433.3 31987.6 lineto
46395.8 32025.1 lineto
stroke
63.7863 setlinewidth
newpath
26540 30761 moveto
26540 30123.1 lineto
stroke
newpath
26221 30442.1 moveto
26858.9 30442.1 lineto
stroke
127.573 setlinewidth
78.7404 setlinewidth
0 0 0 setrgbcolor
0 0 0 setrgbcolor
newpath
28285.6 30085.9 moveto
27835.6 30085.9 lineto
stroke
newpath
28060.6 30085.9 moveto
28060.6 30873.3 lineto
27985.6 30760.8 lineto
27910.6 30685.8 lineto
27835.6 30648.3 lineto
stroke
newpath
28623 30160.9 moveto
28660.5 30123.4 lineto
28623 30085.9 lineto
28585.5 30123.4 lineto
28623 30160.9 lineto
28623 30085.9 lineto
stroke
newpath
29148 30873.3 moveto
29223 30873.3 lineto
29298 30835.8 lineto
29335.5 30798.3 lineto
29372.9 30723.3 lineto
29410.4 30573.3 lineto
29410.4 30385.8 lineto
29372.9 30235.9 lineto
29335.5 30160.9 lineto
29298 30123.4 lineto
29223 30085.9 lineto
29148 30085.9 lineto
29073 30123.4 lineto
29035.5 30160.9 lineto
28998 30235.9 lineto
28960.5 30385.8 lineto
28960.5 30573.3 lineto
28998 30723.3 lineto
29035.5 30798.3 lineto
29073 30835.8 lineto
29148 30873.3 lineto
stroke
newpath
29897.9 30873.3 moveto
29972.9 30873.3 lineto
30047.9 30835.8 lineto
30085.4 30798.3 lineto
30122.9 30723.3 lineto
30160.4 30573.3 lineto
30160.4 30385.8 lineto
30122.9 30235.9 lineto
30085.4 30160.9 lineto
30047.9 30123.4 lineto
29972.9 30085.9 lineto
29897.9 30085.9 lineto
29822.9 30123.4 lineto
29785.4 30160.9 lineto
29747.9 30235.9 lineto
29710.4 30385.8 lineto
29710.4 30573.3 lineto
29747.9 30723.3 lineto
29785.4 30798.3 lineto
29822.9 30835.8 lineto
29897.9 30873.3 lineto
stroke
newpath
30647.8 30873.3 moveto
30722.8 30873.3 lineto
30797.8 30835.8 lineto
30835.3 30798.3 lineto
30872.8 30723.3 lineto
30910.3 30573.3 lineto
30910.3 30385.8 lineto
30872.8 30235.9 lineto
30835.3 30160.9 lineto
30797.8 30123.4 lineto
30722.8 30085.9 lineto
30647.8 30085.9 lineto
30572.8 30123.4 lineto
30535.3 30160.9 lineto
30497.8 30235.9 lineto
30460.3 30385.8 lineto
30460.3 30573.3 lineto
30497.8 30723.3 lineto
30535.3 30798.3 lineto
30572.8 30835.8 lineto
30647.8 30873.3 lineto
stroke
newpath
31247.7 30085.9 moveto
31247.7 30610.8 lineto
stroke
newpath
31247.7 30535.8 moveto
31285.2 30573.3 lineto
31360.2 30610.8 lineto
31472.7 30610.8 lineto
31547.7 30573.3 lineto
31585.2 30498.3 lineto
31585.2 30085.9 lineto
stroke
newpath
31585.2 30498.3 moveto
31622.7 30573.3 lineto
31697.7 30610.8 lineto
31810.1 30610.8 lineto
31885.1 30573.3 lineto
31922.6 30498.3 lineto
31922.6 30085.9 lineto
stroke
newpath
32297.6 30085.9 moveto
32297.6 30610.8 lineto
stroke
newpath
32297.6 30535.8 moveto
32335.1 30573.3 lineto
32410.1 30610.8 lineto
32522.6 30610.8 lineto
32597.5 30573.3 lineto
32635 30498.3 lineto
32635 30085.9 lineto
stroke
newpath
32635 30498.3 moveto
32672.5 30573.3 lineto
32747.5 30610.8 lineto
32860 30610.8 lineto
32935 30573.3 lineto
32972.5 30498.3 lineto
32972.5 30085.9 lineto
stroke
newpath
34509.8 30910.8 moveto
33834.9 29898.4 lineto
stroke
newpath
35522.2 30873.3 moveto
35597.2 30873.3 lineto
35672.2 30835.8 lineto
35709.7 30798.3 lineto
35747.2 30723.3 lineto
35784.6 30573.3 lineto
35784.6 30385.8 lineto
35747.2 30235.9 lineto
35709.7 30160.9 lineto
35672.2 30123.4 lineto
35597.2 30085.9 lineto
35522.2 30085.9 lineto
35447.2 30123.4 lineto
35409.7 30160.9 lineto
35372.2 30235.9 lineto
35334.7 30385.8 lineto
35334.7 30573.3 lineto
35372.2 30723.3 lineto
35409.7 30798.3 lineto
35447.2 30835.8 lineto
35522.2 30873.3 lineto
stroke
newpath
36122.1 30160.9 moveto
36159.6 30123.4 lineto
36122.1 30085.9 lineto
36084.6 30123.4 lineto
36122.1 30160.9 lineto
36122.1 30085.9 lineto
stroke
newpath
36647 30873.3 moveto
36722 30873.3 lineto
36797 30835.8 lineto
36834.5 30798.3 lineto
36872 30723.3 lineto
36909.5 30573.3 lineto
36909.5 30385.8 lineto
36872 30235.9 lineto
36834.5 30160.9 lineto
36797 30123.4 lineto
36722 30085.9 lineto
36647 30085.9 lineto
36572 30123.4 lineto
36534.6 30160.9 lineto
36497.1 30235.9 lineto
36459.6 30385.8 lineto
36459.6 30573.3 lineto
36497.1 30723.3 lineto
36534.6 30798.3 lineto
36572 30835.8 lineto
36647 30873.3 lineto
stroke
newpath
37172 30873.3 moveto
37659.4 30873.3 lineto
37396.9 30573.3 lineto
37509.4 30573.3 lineto
37584.4 30535.8 lineto
37621.9 30498.3 lineto
37659.4 30423.3 lineto
37659.4 30235.9 lineto
37621.9 30160.9 lineto
37584.4 30123.4 lineto
37509.4 30085.9 lineto
37284.5 30085.9 lineto
37209.5 30123.4 lineto
37172 30160.9 lineto
stroke
newpath
38034.4 30085.9 moveto
38184.3 30085.9 lineto
38259.3 30123.4 lineto
38296.8 30160.9 lineto
38371.8 30273.3 lineto
38409.3 30423.3 lineto
38409.3 30723.3 lineto
38371.8 30798.3 lineto
38334.3 30835.8 lineto
38259.3 30873.3 lineto
38109.4 30873.3 lineto
38034.4 30835.8 lineto
37996.9 30798.3 lineto
37959.4 30723.3 lineto
37959.4 30535.8 lineto
37996.9 30460.8 lineto
38034.4 30423.3 lineto
38109.4 30385.8 lineto
38259.3 30385.8 lineto
38334.3 30423.3 lineto
38371.8 30460.8 lineto
38409.3 30535.8 lineto
stroke
newpath
39084.2 30610.8 moveto
39084.2 30085.9 lineto
stroke
newpath
38896.8 30910.8 moveto
38709.3 30348.3 lineto
39196.7 30348.3 lineto
stroke
newpath
39459.2 30873.3 moveto
39459.2 30723.3 lineto
stroke
newpath
39759.2 30873.3 moveto
39759.2 30723.3 lineto
stroke
newpath
40921.5 29785.9 moveto
40884 29823.4 lineto
40809 29935.9 lineto
40771.5 30010.9 lineto
40734 30123.4 lineto
40696.5 30310.8 lineto
40696.5 30460.8 lineto
40734 30648.3 lineto
40771.5 30760.8 lineto
40809 30835.8 lineto
40884 30948.3 lineto
40921.5 30985.8 lineto
stroke
newpath
41184 30798.3 moveto
41221.5 30835.8 lineto
41296.5 30873.3 lineto
41483.9 30873.3 lineto
41558.9 30835.8 lineto
41596.4 30798.3 lineto
41633.9 30723.3 lineto
41633.9 30648.3 lineto
41596.4 30535.8 lineto
41146.5 30085.9 lineto
41633.9 30085.9 lineto
stroke
newpath
41896.4 30873.3 moveto
42421.3 30873.3 lineto
42083.9 30085.9 lineto
stroke
newpath
43321.2 30085.9 moveto
43321.2 30873.3 lineto
stroke
newpath
43658.7 30085.9 moveto
43658.7 30498.3 lineto
43621.2 30573.3 lineto
43546.2 30610.8 lineto
43433.7 30610.8 lineto
43358.7 30573.3 lineto
43321.2 30535.8 lineto
stroke
newpath
44146.1 30085.9 moveto
44071.1 30123.4 lineto
44033.6 30160.9 lineto
43996.1 30235.9 lineto
43996.1 30460.8 lineto
44033.6 30535.8 lineto
44071.1 30573.3 lineto
44146.1 30610.8 lineto
44258.6 30610.8 lineto
44333.6 30573.3 lineto
44371.1 30535.8 lineto
44408.6 30460.8 lineto
44408.6 30235.9 lineto
44371.1 30160.9 lineto
44333.6 30123.4 lineto
44258.6 30085.9 lineto
44146.1 30085.9 lineto
stroke
newpath
44858.5 30085.9 moveto
44783.5 30123.4 lineto
44746 30198.4 lineto
44746 30873.3 lineto
stroke
newpath
45458.4 30123.4 moveto
45383.4 30085.9 lineto
45233.5 30085.9 lineto
45158.5 30123.4 lineto
45121 30198.4 lineto
45121 30498.3 lineto
45158.5 30573.3 lineto
45233.5 30610.8 lineto
45383.4 30610.8 lineto
45458.4 30573.3 lineto
45495.9 30498.3 lineto
45495.9 30423.3 lineto
45121 30348.3 lineto
stroke
newpath
45795.9 30123.4 moveto
45870.9 30085.9 lineto
46020.9 30085.9 lineto
46095.9 30123.4 lineto
46133.4 30198.4 lineto
46133.4 30235.9 lineto
46095.9 30310.8 lineto
46020.9 30348.3 lineto
45908.4 30348.3 lineto
45833.4 30385.8 lineto
45795.9 30460.8 lineto
45795.9 30498.3 lineto
45833.4 30573.3 lineto
45908.4 30610.8 lineto
46020.9 30610.8 lineto
46095.9 30573.3 lineto
stroke
newpath
47070.7 30385.8 moveto
47670.7 30385.8 lineto
stroke
newpath
47370.7 30085.9 moveto
47370.7 30685.8 lineto
stroke
newpath
48570.6 30873.3 moveto
49058 30873.3 lineto
48795.5 30573.3 lineto
48908 30573.3 lineto
48983 30535.8 lineto
49020.5 30498.3 lineto
49058 30423.3 lineto
49058 30235.9 lineto
49020.5 30160.9 lineto
48983 30123.4 lineto
48908 30085.9 lineto
48683 30085.9 lineto
48608 30123.4 lineto
48570.6 30160.9 lineto
stroke
newpath
49957.9 30123.4 moveto
50032.9 30085.9 lineto
50182.9 30085.9 lineto
50257.8 30123.4 lineto
50295.3 30198.4 lineto
50295.3 30235.9 lineto
50257.8 30310.8 lineto
50182.9 30348.3 lineto
50070.4 30348.3 lineto
49995.4 30385.8 lineto
49957.9 30460.8 lineto
49957.9 30498.3 lineto
49995.4 30573.3 lineto
50070.4 30610.8 lineto
50182.9 30610.8 lineto
50257.8 30573.3 lineto
stroke
newpath
50745.3 30085.9 moveto
50670.3 30123.4 lineto
50632.8 30198.4 lineto
50632.8 30873.3 lineto
stroke
newpath
51157.7 30085.9 moveto
51082.7 30123.4 lineto
51045.2 30160.9 lineto
51007.7 30235.9 lineto
51007.7 30460.8 lineto
51045.2 30535.8 lineto
51082.7 30573.3 lineto
51157.7 30610.8 lineto
51270.2 30610.8 lineto
51345.2 30573.3 lineto
51382.7 30535.8 lineto
51420.2 30460.8 lineto
51420.2 30235.9 lineto
51382.7 30160.9 lineto
51345.2 30123.4 lineto
51270.2 30085.9 lineto
51157.7 30085.9 lineto
stroke
newpath
51645.2 30610.8 moveto
51945.1 30610.8 lineto
stroke
newpath
51757.7 30873.3 moveto
51757.7 30198.4 lineto
51795.1 30123.4 lineto
51870.1 30085.9 lineto
51945.1 30085.9 lineto
stroke
newpath
52170.1 30123.4 moveto
52245.1 30085.9 lineto
52395.1 30085.9 lineto
52470.1 30123.4 lineto
52507.6 30198.4 lineto
52507.6 30235.9 lineto
52470.1 30310.8 lineto
52395.1 30348.3 lineto
52282.6 30348.3 lineto
52207.6 30385.8 lineto
52170.1 30460.8 lineto
52170.1 30498.3 lineto
52207.6 30573.3 lineto
52282.6 30610.8 lineto
52395.1 30610.8 lineto
52470.1 30573.3 lineto
stroke
newpath
52770 29785.9 moveto
52807.5 29823.4 lineto
52882.5 29935.9 lineto
52920 30010.9 lineto
52957.5 30123.4 lineto
52995 30310.8 lineto
52995 30460.8 lineto
52957.5 30648.3 lineto
52920 30760.8 lineto
52882.5 30835.8 lineto
52807.5 30948.3 lineto
52770 30985.8 lineto
stroke
70.1649 setlinewidth
newpath
26756.1 29083.7 moveto
26756.1 29579.8 lineto
26260 29579.8 lineto
26260 29083.7 lineto
26756.1 29083.7 lineto
poly0
127.573 setlinewidth
78.7404 setlinewidth
0 0 0 setrgbcolor
0 0 0 setrgbcolor
newpath
28285.6 28975.6 moveto
27835.6 28975.6 lineto
stroke
newpath
28060.6 28975.6 moveto
28060.6 29763 lineto
27985.6 29650.5 lineto
27910.6 29575.5 lineto
27835.6 29538 lineto
stroke
newpath
28623 29050.6 moveto
28660.5 29013.1 lineto
28623 28975.6 lineto
28585.5 29013.1 lineto
28623 29050.6 lineto
28623 28975.6 lineto
stroke
newpath
29410.4 28975.6 moveto
28960.5 28975.6 lineto
stroke
newpath
29185.5 28975.6 moveto
29185.5 29763 lineto
29110.5 29650.5 lineto
29035.5 29575.5 lineto
28960.5 29538 lineto
stroke
newpath
29897.9 29763 moveto
29972.9 29763 lineto
30047.9 29725.5 lineto
30085.4 29688 lineto
30122.9 29613 lineto
30160.4 29463 lineto
30160.4 29275.5 lineto
30122.9 29125.5 lineto
30085.4 29050.6 lineto
30047.9 29013.1 lineto
29972.9 28975.6 lineto
29897.9 28975.6 lineto
29822.9 29013.1 lineto
29785.4 29050.6 lineto
29747.9 29125.5 lineto
29710.4 29275.5 lineto
29710.4 29463 lineto
29747.9 29613 lineto
29785.4 29688 lineto
29822.9 29725.5 lineto
29897.9 29763 lineto
stroke
newpath
30647.8 29763 moveto
30722.8 29763 lineto
30797.8 29725.5 lineto
30835.3 29688 lineto
30872.8 29613 lineto
30910.3 29463 lineto
30910.3 29275.5 lineto
30872.8 29125.5 lineto
30835.3 29050.6 lineto
30797.8 29013.1 lineto
30722.8 28975.6 lineto
30647.8 28975.6 lineto
30572.8 29013.1 lineto
30535.3 29050.6 lineto
30497.8 29125.5 lineto
30460.3 29275.5 lineto
30460.3 29463 lineto
30497.8 29613 lineto
30535.3 29688 lineto
30572.8 29725.5 lineto
30647.8 29763 lineto
stroke
newpath
31247.7 28975.6 moveto
31247.7 29500.5 lineto
stroke
newpath
31247.7 29425.5 moveto
31285.2 29463 lineto
31360.2 29500.5 lineto
31472.7 29500.5 lineto
31547.7 29463 lineto
31585.2 29388 lineto
31585.2 28975.6 lineto
stroke
newpath
31585.2 29388 moveto
31622.7 29463 lineto
31697.7 29500.5 lineto
31810.1 29500.5 lineto
31885.1 29463 lineto
31922.6 29388 lineto
31922.6 28975.6 lineto
stroke
newpath
32297.6 28975.6 moveto
32297.6 29500.5 lineto
stroke
newpath
32297.6 29425.5 moveto
32335.1 29463 lineto
32410.1 29500.5 lineto
32522.6 29500.5 lineto
32597.5 29463 lineto
32635 29388 lineto
32635 28975.6 lineto
stroke
newpath
32635 29388 moveto
32672.5 29463 lineto
32747.5 29500.5 lineto
32860 29500.5 lineto
32935 29463 lineto
32972.5 29388 lineto
32972.5 28975.6 lineto
stroke
newpath
34509.8 29800.5 moveto
33834.9 28788.1 lineto
stroke
newpath
35522.2 29763 moveto
35597.2 29763 lineto
35672.2 29725.5 lineto
35709.7 29688 lineto
35747.2 29613 lineto
35784.6 29463 lineto
35784.6 29275.5 lineto
35747.2 29125.5 lineto
35709.7 29050.6 lineto
35672.2 29013.1 lineto
35597.2 28975.6 lineto
35522.2 28975.6 lineto
35447.2 29013.1 lineto
35409.7 29050.6 lineto
35372.2 29125.5 lineto
35334.7 29275.5 lineto
35334.7 29463 lineto
35372.2 29613 lineto
35409.7 29688 lineto
35447.2 29725.5 lineto
35522.2 29763 lineto
stroke
newpath
36122.1 29050.6 moveto
36159.6 29013.1 lineto
36122.1 28975.6 lineto
36084.6 29013.1 lineto
36122.1 29050.6 lineto
36122.1 28975.6 lineto
stroke
newpath
36647 29763 moveto
36722 29763 lineto
36797 29725.5 lineto
36834.5 29688 lineto
36872 29613 lineto
36909.5 29463 lineto
36909.5 29275.5 lineto
36872 29125.5 lineto
36834.5 29050.6 lineto
36797 29013.1 lineto
36722 28975.6 lineto
36647 28975.6 lineto
36572 29013.1 lineto
36534.6 29050.6 lineto
36497.1 29125.5 lineto
36459.6 29275.5 lineto
36459.6 29463 lineto
36497.1 29613 lineto
36534.6 29688 lineto
36572 29725.5 lineto
36647 29763 lineto
stroke
newpath
37584.4 29500.5 moveto
37584.4 28975.6 lineto
stroke
newpath
37396.9 29800.5 moveto
37209.5 29238 lineto
37696.9 29238 lineto
stroke
newpath
37921.9 29763 moveto
38409.3 29763 lineto
38146.9 29463 lineto
38259.3 29463 lineto
38334.3 29425.5 lineto
38371.8 29388 lineto
38409.3 29313 lineto
38409.3 29125.5 lineto
38371.8 29050.6 lineto
38334.3 29013.1 lineto
38259.3 28975.6 lineto
38034.4 28975.6 lineto
37959.4 29013.1 lineto
37921.9 29050.6 lineto
stroke
newpath
38671.8 29763 moveto
39159.2 29763 lineto
38896.8 29463 lineto
39009.2 29463 lineto
39084.2 29425.5 lineto
39121.7 29388 lineto
39159.2 29313 lineto
39159.2 29125.5 lineto
39121.7 29050.6 lineto
39084.2 29013.1 lineto
39009.2 28975.6 lineto
38784.3 28975.6 lineto
38709.3 29013.1 lineto
38671.8 29050.6 lineto
stroke
newpath
39459.2 29763 moveto
39459.2 29613 lineto
stroke
newpath
39759.2 29763 moveto
39759.2 29613 lineto
stroke
newpath
40921.5 28675.6 moveto
40884 28713.1 lineto
40809 28825.6 lineto
40771.5 28900.6 lineto
40734 29013.1 lineto
40696.5 29200.5 lineto
40696.5 29350.5 lineto
40734 29538 lineto
40771.5 29650.5 lineto
40809 29725.5 lineto
40884 29838 lineto
40921.5 29875.5 lineto
stroke
newpath
41146.5 29763 moveto
41633.9 29763 lineto
41371.5 29463 lineto
41483.9 29463 lineto
41558.9 29425.5 lineto
41596.4 29388 lineto
41633.9 29313 lineto
41633.9 29125.5 lineto
41596.4 29050.6 lineto
41558.9 29013.1 lineto
41483.9 28975.6 lineto
41259 28975.6 lineto
41184 29013.1 lineto
41146.5 29050.6 lineto
stroke
newpath
42571.3 28975.6 moveto
42571.3 29763 lineto
stroke
newpath
42908.8 28975.6 moveto
42908.8 29388 lineto
42871.3 29463 lineto
42796.3 29500.5 lineto
42683.8 29500.5 lineto
42608.8 29463 lineto
42571.3 29425.5 lineto
stroke
newpath
43396.2 28975.6 moveto
43321.2 29013.1 lineto
43283.7 29050.6 lineto
43246.2 29125.5 lineto
43246.2 29350.5 lineto
43283.7 29425.5 lineto
43321.2 29463 lineto
43396.2 29500.5 lineto
43508.7 29500.5 lineto
43583.7 29463 lineto
43621.2 29425.5 lineto
43658.7 29350.5 lineto
43658.7 29125.5 lineto
43621.2 29050.6 lineto
43583.7 29013.1 lineto
43508.7 28975.6 lineto
43396.2 28975.6 lineto
stroke
newpath
44108.6 28975.6 moveto
44033.6 29013.1 lineto
43996.1 29088.1 lineto
43996.1 29763 lineto
stroke
newpath
44708.5 29013.1 moveto
44633.5 28975.6 lineto
44483.6 28975.6 lineto
44408.6 29013.1 lineto
44371.1 29088.1 lineto
44371.1 29388 lineto
44408.6 29463 lineto
44483.6 29500.5 lineto
44633.5 29500.5 lineto
44708.5 29463 lineto
44746 29388 lineto
44746 29313 lineto
44371.1 29238 lineto
stroke
newpath
45046 29013.1 moveto
45121 28975.6 lineto
45271 28975.6 lineto
45346 29013.1 lineto
45383.4 29088.1 lineto
45383.4 29125.5 lineto
45346 29200.5 lineto
45271 29238 lineto
45158.5 29238 lineto
45083.5 29275.5 lineto
45046 29350.5 lineto
45046 29388 lineto
45083.5 29463 lineto
45158.5 29500.5 lineto
45271 29500.5 lineto
45346 29463 lineto
stroke
newpath
45645.9 28675.6 moveto
45683.4 28713.1 lineto
45758.4 28825.6 lineto
45795.9 28900.6 lineto
45833.4 29013.1 lineto
45870.9 29200.5 lineto
45870.9 29350.5 lineto
45833.4 29538 lineto
45795.9 29650.5 lineto
45758.4 29725.5 lineto
45683.4 29838 lineto
45645.9 29875.5 lineto
stroke
78.7397 setlinewidth
newpath
26465.2 27764 moveto
26858.9 28157.7 lineto
26465.2 28551.4 lineto
26071.5 28157.7 lineto
26465.2 27764 lineto
poly0
127.573 setlinewidth
78.7404 setlinewidth
0 0 0 setrgbcolor
0 0 0 setrgbcolor
newpath
28285.6 27801.5 moveto
27835.6 27801.5 lineto
stroke
newpath
28060.6 27801.5 moveto
28060.6 28588.9 lineto
27985.6 28476.4 lineto
27910.6 28401.4 lineto
27835.6 28363.9 lineto
stroke
newpath
28623 27876.5 moveto
28660.5 27839 lineto
28623 27801.5 lineto
28585.5 27839 lineto
28623 27876.5 lineto
28623 27801.5 lineto
stroke
newpath
28923 28588.9 moveto
29410.4 28588.9 lineto
29148 28288.9 lineto
29260.5 28288.9 lineto
29335.5 28251.4 lineto
29372.9 28213.9 lineto
29410.4 28138.9 lineto
29410.4 27951.5 lineto
29372.9 27876.5 lineto
29335.5 27839 lineto
29260.5 27801.5 lineto
29035.5 27801.5 lineto
28960.5 27839 lineto
28923 27876.5 lineto
stroke
newpath
29710.4 28513.9 moveto
29747.9 28551.4 lineto
29822.9 28588.9 lineto
30010.4 28588.9 lineto
30085.4 28551.4 lineto
30122.9 28513.9 lineto
30160.4 28438.9 lineto
30160.4 28363.9 lineto
30122.9 28251.4 lineto
29672.9 27801.5 lineto
30160.4 27801.5 lineto
stroke
newpath
30647.8 28588.9 moveto
30722.8 28588.9 lineto
30797.8 28551.4 lineto
30835.3 28513.9 lineto
30872.8 28438.9 lineto
30910.3 28288.9 lineto
30910.3 28101.4 lineto
30872.8 27951.5 lineto
30835.3 27876.5 lineto
30797.8 27839 lineto
30722.8 27801.5 lineto
30647.8 27801.5 lineto
30572.8 27839 lineto
30535.3 27876.5 lineto
30497.8 27951.5 lineto
30460.3 28101.4 lineto
30460.3 28288.9 lineto
30497.8 28438.9 lineto
30535.3 28513.9 lineto
30572.8 28551.4 lineto
30647.8 28588.9 lineto
stroke
newpath
31247.7 27801.5 moveto
31247.7 28326.4 lineto
stroke
newpath
31247.7 28251.4 moveto
31285.2 28288.9 lineto
31360.2 28326.4 lineto
31472.7 28326.4 lineto
31547.7 28288.9 lineto
31585.2 28213.9 lineto
31585.2 27801.5 lineto
stroke
newpath
31585.2 28213.9 moveto
31622.7 28288.9 lineto
31697.7 28326.4 lineto
31810.1 28326.4 lineto
31885.1 28288.9 lineto
31922.6 28213.9 lineto
31922.6 27801.5 lineto
stroke
newpath
32297.6 27801.5 moveto
32297.6 28326.4 lineto
stroke
newpath
32297.6 28251.4 moveto
32335.1 28288.9 lineto
32410.1 28326.4 lineto
32522.6 28326.4 lineto
32597.5 28288.9 lineto
32635 28213.9 lineto
32635 27801.5 lineto
stroke
newpath
32635 28213.9 moveto
32672.5 28288.9 lineto
32747.5 28326.4 lineto
32860 28326.4 lineto
32935 28288.9 lineto
32972.5 28213.9 lineto
32972.5 27801.5 lineto
stroke
newpath
34509.8 28626.4 moveto
33834.9 27614 lineto
stroke
newpath
35522.2 28588.9 moveto
35597.2 28588.9 lineto
35672.2 28551.4 lineto
35709.7 28513.9 lineto
35747.2 28438.9 lineto
35784.6 28288.9 lineto
35784.6 28101.4 lineto
35747.2 27951.5 lineto
35709.7 27876.5 lineto
35672.2 27839 lineto
35597.2 27801.5 lineto
35522.2 27801.5 lineto
35447.2 27839 lineto
35409.7 27876.5 lineto
35372.2 27951.5 lineto
35334.7 28101.4 lineto
35334.7 28288.9 lineto
35372.2 28438.9 lineto
35409.7 28513.9 lineto
35447.2 28551.4 lineto
35522.2 28588.9 lineto
stroke
newpath
36122.1 27876.5 moveto
36159.6 27839 lineto
36122.1 27801.5 lineto
36084.6 27839 lineto
36122.1 27876.5 lineto
36122.1 27801.5 lineto
stroke
newpath
36647 28588.9 moveto
36722 28588.9 lineto
36797 28551.4 lineto
36834.5 28513.9 lineto
36872 28438.9 lineto
36909.5 28288.9 lineto
36909.5 28101.4 lineto
36872 27951.5 lineto
36834.5 27876.5 lineto
36797 27839 lineto
36722 27801.5 lineto
36647 27801.5 lineto
36572 27839 lineto
36534.6 27876.5 lineto
36497.1 27951.5 lineto
36459.6 28101.4 lineto
36459.6 28288.9 lineto
36497.1 28438.9 lineto
36534.6 28513.9 lineto
36572 28551.4 lineto
36647 28588.9 lineto
stroke
newpath
37621.9 28588.9 moveto
37247 28588.9 lineto
37209.5 28213.9 lineto
37247 28251.4 lineto
37322 28288.9 lineto
37509.4 28288.9 lineto
37584.4 28251.4 lineto
37621.9 28213.9 lineto
37659.4 28138.9 lineto
37659.4 27951.5 lineto
37621.9 27876.5 lineto
37584.4 27839 lineto
37509.4 27801.5 lineto
37322 27801.5 lineto
37247 27839 lineto
37209.5 27876.5 lineto
stroke
newpath
37959.4 28513.9 moveto
37996.9 28551.4 lineto
38071.9 28588.9 lineto
38259.3 28588.9 lineto
38334.3 28551.4 lineto
38371.8 28513.9 lineto
38409.3 28438.9 lineto
38409.3 28363.9 lineto
38371.8 28251.4 lineto
37921.9 27801.5 lineto
38409.3 27801.5 lineto
stroke
newpath
38896.8 28588.9 moveto
38971.8 28588.9 lineto
39046.7 28551.4 lineto
39084.2 28513.9 lineto
39121.7 28438.9 lineto
39159.2 28288.9 lineto
39159.2 28101.4 lineto
39121.7 27951.5 lineto
39084.2 27876.5 lineto
39046.7 27839 lineto
38971.8 27801.5 lineto
38896.8 27801.5 lineto
38821.8 27839 lineto
38784.3 27876.5 lineto
38746.8 27951.5 lineto
38709.3 28101.4 lineto
38709.3 28288.9 lineto
38746.8 28438.9 lineto
38784.3 28513.9 lineto
38821.8 28551.4 lineto
38896.8 28588.9 lineto
stroke
newpath
39459.2 28588.9 moveto
39459.2 28438.9 lineto
stroke
newpath
39759.2 28588.9 moveto
39759.2 28438.9 lineto
stroke
newpath
40921.5 27501.5 moveto
40884 27539 lineto
40809 27651.5 lineto
40771.5 27726.5 lineto
40734 27839 lineto
40696.5 28026.4 lineto
40696.5 28176.4 lineto
40734 28363.9 lineto
40771.5 28476.4 lineto
40809 28551.4 lineto
40884 28663.9 lineto
40921.5 28701.4 lineto
stroke
newpath
41633.9 27801.5 moveto
41184 27801.5 lineto
stroke
newpath
41408.9 27801.5 moveto
41408.9 28588.9 lineto
41334 28476.4 lineto
41259 28401.4 lineto
41184 28363.9 lineto
stroke
newpath
42308.8 28326.4 moveto
42308.8 27801.5 lineto
stroke
newpath
42121.4 28626.4 moveto
41933.9 28063.9 lineto
42421.3 28063.9 lineto
stroke
newpath
43321.2 27801.5 moveto
43321.2 28588.9 lineto
stroke
newpath
43658.7 27801.5 moveto
43658.7 28213.9 lineto
43621.2 28288.9 lineto
43546.2 28326.4 lineto
43433.7 28326.4 lineto
43358.7 28288.9 lineto
43321.2 28251.4 lineto
stroke
newpath
44146.1 27801.5 moveto
44071.1 27839 lineto
44033.6 27876.5 lineto
43996.1 27951.5 lineto
43996.1 28176.4 lineto
44033.6 28251.4 lineto
44071.1 28288.9 lineto
44146.1 28326.4 lineto
44258.6 28326.4 lineto
44333.6 28288.9 lineto
44371.1 28251.4 lineto
44408.6 28176.4 lineto
44408.6 27951.5 lineto
44371.1 27876.5 lineto
44333.6 27839 lineto
44258.6 27801.5 lineto
44146.1 27801.5 lineto
stroke
newpath
44858.5 27801.5 moveto
44783.5 27839 lineto
44746 27914 lineto
44746 28588.9 lineto
stroke
newpath
45458.4 27839 moveto
45383.4 27801.5 lineto
45233.5 27801.5 lineto
45158.5 27839 lineto
45121 27914 lineto
45121 28213.9 lineto
45158.5 28288.9 lineto
45233.5 28326.4 lineto
45383.4 28326.4 lineto
45458.4 28288.9 lineto
45495.9 28213.9 lineto
45495.9 28138.9 lineto
45121 28063.9 lineto
stroke
newpath
45795.9 27839 moveto
45870.9 27801.5 lineto
46020.9 27801.5 lineto
46095.9 27839 lineto
46133.4 27914 lineto
46133.4 27951.5 lineto
46095.9 28026.4 lineto
46020.9 28063.9 lineto
45908.4 28063.9 lineto
45833.4 28101.4 lineto
45795.9 28176.4 lineto
45795.9 28213.9 lineto
45833.4 28288.9 lineto
45908.4 28326.4 lineto
46020.9 28326.4 lineto
46095.9 28288.9 lineto
stroke
newpath
46395.8 27501.5 moveto
46433.3 27539 lineto
46508.3 27651.5 lineto
46545.8 27726.5 lineto
46583.3 27839 lineto
46620.8 28026.4 lineto
46620.8 28176.4 lineto
46583.3 28363.9 lineto
46545.8 28476.4 lineto
46508.3 28551.4 lineto
46433.3 28663.9 lineto
46395.8 28701.4 lineto
stroke
showpage
grestore
%%EOF
