%TF.GenerationSoftware,KiCad,Pcbnew,(6.0.2-0)*%
%TF.CreationDate,2022-03-07T18:22:49+01:00*%
%TF.ProjectId,auto-plant-watering,6175746f-2d70-46c6-916e-742d77617465,rev?*%
%TF.SameCoordinates,Original*%
%TF.FileFunction,Paste,Top*%
%TF.FilePolarity,Positive*%
%FSLAX46Y46*%
G04 Gerber Fmt 4.6, Leading zero omitted, Abs format (unit mm)*
G04 Created by KiCad (PCBNEW (6.0.2-0)) date 2022-03-07 18:22:49*
%MOMM*%
%LPD*%
G01*
G04 APERTURE LIST*
G04 Aperture macros list*
%AMRoundRect*
0 Rectangle with rounded corners*
0 $1 Rounding radius*
0 $2 $3 $4 $5 $6 $7 $8 $9 X,Y pos of 4 corners*
0 Add a 4 corners polygon primitive as box body*
4,1,4,$2,$3,$4,$5,$6,$7,$8,$9,$2,$3,0*
0 Add four circle primitives for the rounded corners*
1,1,$1+$1,$2,$3*
1,1,$1+$1,$4,$5*
1,1,$1+$1,$6,$7*
1,1,$1+$1,$8,$9*
0 Add four rect primitives between the rounded corners*
20,1,$1+$1,$2,$3,$4,$5,0*
20,1,$1+$1,$4,$5,$6,$7,0*
20,1,$1+$1,$6,$7,$8,$9,0*
20,1,$1+$1,$8,$9,$2,$3,0*%
G04 Aperture macros list end*
%ADD10RoundRect,0.250000X0.650000X-0.412500X0.650000X0.412500X-0.650000X0.412500X-0.650000X-0.412500X0*%
%ADD11RoundRect,0.250000X-0.625000X0.400000X-0.625000X-0.400000X0.625000X-0.400000X0.625000X0.400000X0*%
%ADD12R,0.650000X1.560000*%
%ADD13RoundRect,0.250001X0.462499X0.624999X-0.462499X0.624999X-0.462499X-0.624999X0.462499X-0.624999X0*%
%ADD14RoundRect,0.150000X0.150000X-0.725000X0.150000X0.725000X-0.150000X0.725000X-0.150000X-0.725000X0*%
%ADD15RoundRect,0.250000X0.400000X0.625000X-0.400000X0.625000X-0.400000X-0.625000X0.400000X-0.625000X0*%
%ADD16RoundRect,0.250000X0.412500X0.650000X-0.412500X0.650000X-0.412500X-0.650000X0.412500X-0.650000X0*%
%ADD17RoundRect,0.250000X-0.400000X-0.625000X0.400000X-0.625000X0.400000X0.625000X-0.400000X0.625000X0*%
%ADD18RoundRect,0.250000X0.625000X-0.400000X0.625000X0.400000X-0.625000X0.400000X-0.625000X-0.400000X0*%
%ADD19RoundRect,0.250000X-0.650000X0.412500X-0.650000X-0.412500X0.650000X-0.412500X0.650000X0.412500X0*%
G04 APERTURE END LIST*
D10*
%TO.C,C3*%
X195000000Y-115250000D03*
X195000000Y-112125000D03*
%TD*%
D11*
%TO.C,R8*%
X194500000Y-86200000D03*
X194500000Y-89300000D03*
%TD*%
D12*
%TO.C,U4*%
X187300000Y-86150000D03*
X188250000Y-86150000D03*
X189200000Y-86150000D03*
X189200000Y-88850000D03*
X188250000Y-88850000D03*
X187300000Y-88850000D03*
%TD*%
D10*
%TO.C,C4*%
X120200000Y-102362500D03*
X120200000Y-99237500D03*
%TD*%
D13*
%TO.C,D5*%
X121737500Y-127500000D03*
X118762500Y-127500000D03*
%TD*%
D11*
%TO.C,R2*%
X164660000Y-90762500D03*
X164660000Y-87662500D03*
%TD*%
D14*
%TO.C,U3*%
X164155000Y-102775000D03*
X165425000Y-102775000D03*
X166695000Y-102775000D03*
X167965000Y-102775000D03*
X169235000Y-102775000D03*
X170505000Y-102775000D03*
X171775000Y-102775000D03*
X173045000Y-102775000D03*
X173045000Y-97625000D03*
X171775000Y-97625000D03*
X170505000Y-97625000D03*
X169235000Y-97625000D03*
X167965000Y-97625000D03*
X166695000Y-97625000D03*
X165425000Y-97625000D03*
X164155000Y-97625000D03*
%TD*%
D15*
%TO.C,R14*%
X210350000Y-129200000D03*
X207250000Y-129200000D03*
%TD*%
D10*
%TO.C,C6*%
X183750000Y-86687500D03*
X183750000Y-89812500D03*
%TD*%
D16*
%TO.C,C1*%
X128562500Y-81600000D03*
X125437500Y-81600000D03*
%TD*%
D17*
%TO.C,R9*%
X197700000Y-114250000D03*
X200800000Y-114250000D03*
%TD*%
D15*
%TO.C,R10*%
X185750000Y-129200000D03*
X182650000Y-129200000D03*
%TD*%
D11*
%TO.C,R1*%
X167910000Y-87662500D03*
X167910000Y-90762500D03*
%TD*%
D18*
%TO.C,R3*%
X123000000Y-102400000D03*
X123000000Y-99300000D03*
%TD*%
D17*
%TO.C,R16*%
X124950000Y-127500000D03*
X128050000Y-127500000D03*
%TD*%
D18*
%TO.C,R21*%
X133000000Y-119350000D03*
X133000000Y-116250000D03*
%TD*%
D15*
%TO.C,R12*%
X195050000Y-129200000D03*
X198150000Y-129200000D03*
%TD*%
D17*
%TO.C,R5*%
X139300000Y-116500000D03*
X136200000Y-116500000D03*
%TD*%
D19*
%TO.C,C5*%
X162000000Y-97437500D03*
X162000000Y-100562500D03*
%TD*%
D10*
%TO.C,C2*%
X191750000Y-89062500D03*
X191750000Y-85937500D03*
%TD*%
D18*
%TO.C,R23*%
X159800000Y-119450000D03*
X159800000Y-116350000D03*
%TD*%
D15*
%TO.C,R6*%
X152800000Y-116500000D03*
X149700000Y-116500000D03*
%TD*%
D17*
%TO.C,R7*%
X163050000Y-116300000D03*
X166150000Y-116300000D03*
%TD*%
D18*
%TO.C,R20*%
X128600000Y-119400000D03*
X128600000Y-116300000D03*
%TD*%
D15*
%TO.C,R4*%
X126300000Y-116500000D03*
X123200000Y-116500000D03*
%TD*%
D13*
%TO.C,D8*%
X162750000Y-127500000D03*
X159775000Y-127500000D03*
%TD*%
D18*
%TO.C,R22*%
X155200000Y-119450000D03*
X155200000Y-116350000D03*
%TD*%
D17*
%TO.C,R18*%
X151950000Y-127500000D03*
X155050000Y-127500000D03*
%TD*%
D13*
%TO.C,D6*%
X135237500Y-127500000D03*
X132262500Y-127500000D03*
%TD*%
%TO.C,D7*%
X148987500Y-127500000D03*
X146012500Y-127500000D03*
%TD*%
D17*
%TO.C,R17*%
X138700000Y-127500000D03*
X141800000Y-127500000D03*
%TD*%
%TO.C,R19*%
X166150000Y-127500000D03*
X169250000Y-127500000D03*
%TD*%
M02*
