%!PS-Adobe-3.0
%%Creator: PCBNEW
%%CreationDate: Mon Mar  7 18:23:01 2022
%%Title: ()
%%Pages: 1
%%PageOrder: Ascend
%%BoundingBox: 0 0 596 842
%%DocumentMedia: A4 595 842 0 () ()
%%Orientation: Landscape
%%EndComments
%%BeginProlog
/line { newpath moveto lineto stroke } bind def
/cir0 { newpath 0 360 arc stroke } bind def
/cir1 { newpath 0 360 arc gsave fill grestore stroke } bind def
/cir2 { newpath 0 360 arc gsave fill grestore stroke } bind def
/arc0 { newpath arc stroke } bind def
/arc1 { newpath 4 index 4 index moveto arc closepath gsave fill
    grestore stroke } bind def
/arc2 { newpath 4 index 4 index moveto arc closepath gsave fill
    grestore stroke } bind def
/poly0 { stroke } bind def
/poly1 { closepath gsave fill grestore stroke } bind def
/poly2 { closepath gsave fill grestore stroke } bind def
/rect0 { rectstroke } bind def
/rect1 { rectfill } bind def
/rect2 { rectfill } bind def
/linemode0 { 0 setlinecap 0 setlinejoin 0 setlinewidth } bind def
/linemode1 { 1 setlinecap 1 setlinejoin } bind def
/dashedline { [200] 100 setdash } bind def
/solidline { [] 0 setdash } bind def
/phantomshow { moveto
    /KicadFont findfont 0.000001 scalefont setfont
    show } bind def
/textshow { gsave
    findfont exch scalefont setfont concat 1 scale 0 0 moveto show
    } bind def
/reencodefont {
  findfont dup length dict begin
  { 1 index /FID ne
    { def }
    { pop pop } ifelse
  } forall
  /Encoding ISOLatin1Encoding def
  currentdict
  end } bind def
/KicadFont /Helvetica reencodefont definefont pop
/KicadFont-Bold /Helvetica-Bold reencodefont definefont pop
/KicadFont-Oblique /Helvetica-Oblique reencodefont definefont pop
/KicadFont-BoldOblique /Helvetica-BoldOblique reencodefont definefont pop
%%EndProlog
%%Page: 1 1
%%BeginPageSetup
gsave
0.0072 0.0072 scale
linemode1
82680 0 translate 90 rotate
127.573 setlinewidth
%%EndPageSetup
0 0 0 setrgbcolor
63.7863 setlinewidth
newpath
26890.8 35072.4 moveto
90039.2 35072.4 lineto
stroke
0 0 0 setrgbcolor
newpath
26890.8 80679.6 moveto
26890.8 35072.4 lineto
stroke
0 0 0 setrgbcolor
newpath
90039.2 80679.6 moveto
26890.8 80679.6 lineto
stroke
0 0 0 setrgbcolor
newpath
90039.2 35072.4 moveto
90039.2 80679.6 lineto
stroke
127.573 setlinewidth
191.359 setlinewidth
newpath
28102.7 79276.3 moveto
30016.3 77362.7 lineto
stroke
newpath
30016.3 79276.3 moveto
28102.7 77362.7 lineto
stroke
newpath
62547.3 38197.9 moveto
64460.9 36284.3 lineto
stroke
newpath
64460.9 38197.9 moveto
62547.3 36284.3 lineto
stroke
newpath
86913.7 79276.3 moveto
88827.3 77362.7 lineto
stroke
newpath
88827.3 79276.3 moveto
86913.7 77362.7 lineto
stroke
127.573 setlinewidth
78.7404 setlinewidth
0 0 0 setrgbcolor
0 0 0 setrgbcolor
newpath
27873.1 33818.2 moveto
27873.1 34605.6 lineto
28060.6 34605.6 lineto
28173.1 34568.1 lineto
28248.1 34493.1 lineto
28285.6 34418.1 lineto
28323.1 34268.1 lineto
28323.1 34155.6 lineto
28285.6 34005.6 lineto
28248.1 33930.6 lineto
28173.1 33855.7 lineto
28060.6 33818.2 lineto
27873.1 33818.2 lineto
stroke
newpath
28660.5 33818.2 moveto
28660.5 34343.1 lineto
stroke
newpath
28660.5 34193.1 moveto
28698 34268.1 lineto
28735.5 34305.6 lineto
28810.5 34343.1 lineto
28885.5 34343.1 lineto
stroke
newpath
29148 33818.2 moveto
29148 34343.1 lineto
stroke
newpath
29148 34605.6 moveto
29110.5 34568.1 lineto
29148 34530.6 lineto
29185.5 34568.1 lineto
29148 34605.6 lineto
29148 34530.6 lineto
stroke
newpath
29635.4 33818.2 moveto
29560.4 33855.7 lineto
29522.9 33930.6 lineto
29522.9 34605.6 lineto
stroke
newpath
30047.9 33818.2 moveto
29972.9 33855.7 lineto
29935.4 33930.6 lineto
29935.4 34605.6 lineto
stroke
newpath
30947.8 33818.2 moveto
30947.8 34605.6 lineto
31210.2 34043.1 lineto
31472.7 34605.6 lineto
31472.7 33818.2 lineto
stroke
newpath
32185.1 33818.2 moveto
32185.1 34230.6 lineto
32147.6 34305.6 lineto
32072.6 34343.1 lineto
31922.6 34343.1 lineto
31847.6 34305.6 lineto
stroke
newpath
32185.1 33855.7 moveto
32110.1 33818.2 lineto
31922.6 33818.2 lineto
31847.6 33855.7 lineto
31810.1 33930.6 lineto
31810.1 34005.6 lineto
31847.6 34080.6 lineto
31922.6 34118.1 lineto
32110.1 34118.1 lineto
32185.1 34155.6 lineto
stroke
newpath
32560.1 34343.1 moveto
32560.1 33555.7 lineto
stroke
newpath
32560.1 34305.6 moveto
32635 34343.1 lineto
32785 34343.1 lineto
32860 34305.6 lineto
32897.5 34268.1 lineto
32935 34193.1 lineto
32935 33968.1 lineto
32897.5 33893.1 lineto
32860 33855.7 lineto
32785 33818.2 lineto
32635 33818.2 lineto
32560.1 33855.7 lineto
stroke
newpath
33272.5 33893.1 moveto
33310 33855.7 lineto
33272.5 33818.2 lineto
33235 33855.7 lineto
33272.5 33893.1 lineto
33272.5 33818.2 lineto
stroke
newpath
33272.5 34305.6 moveto
33310 34268.1 lineto
33272.5 34230.6 lineto
33235 34268.1 lineto
33272.5 34305.6 lineto
33272.5 34230.6 lineto
stroke
78.7397 setlinewidth
newpath
26071.5 32914.5 moveto
26858.9 32127.1 lineto
stroke
newpath
26858.9 32914.5 moveto
26071.5 32127.1 lineto
stroke
127.573 setlinewidth
78.7404 setlinewidth
0 0 0 setrgbcolor
0 0 0 setrgbcolor
newpath
27798.1 32952 moveto
28285.6 32952 lineto
28023.1 32652.1 lineto
28135.6 32652.1 lineto
28210.6 32614.6 lineto
28248.1 32577.1 lineto
28285.6 32502.1 lineto
28285.6 32314.6 lineto
28248.1 32239.6 lineto
28210.6 32202.1 lineto
28135.6 32164.6 lineto
27910.6 32164.6 lineto
27835.6 32202.1 lineto
27798.1 32239.6 lineto
stroke
newpath
28623 32239.6 moveto
28660.5 32202.1 lineto
28623 32164.6 lineto
28585.5 32202.1 lineto
28623 32239.6 lineto
28623 32164.6 lineto
stroke
newpath
29148 32952 moveto
29223 32952 lineto
29298 32914.5 lineto
29335.5 32877 lineto
29372.9 32802 lineto
29410.4 32652.1 lineto
29410.4 32464.6 lineto
29372.9 32314.6 lineto
29335.5 32239.6 lineto
29298 32202.1 lineto
29223 32164.6 lineto
29148 32164.6 lineto
29073 32202.1 lineto
29035.5 32239.6 lineto
28998 32314.6 lineto
28960.5 32464.6 lineto
28960.5 32652.1 lineto
28998 32802 lineto
29035.5 32877 lineto
29073 32914.5 lineto
29148 32952 lineto
stroke
newpath
29897.9 32952 moveto
29972.9 32952 lineto
30047.9 32914.5 lineto
30085.4 32877 lineto
30122.9 32802 lineto
30160.4 32652.1 lineto
30160.4 32464.6 lineto
30122.9 32314.6 lineto
30085.4 32239.6 lineto
30047.9 32202.1 lineto
29972.9 32164.6 lineto
29897.9 32164.6 lineto
29822.9 32202.1 lineto
29785.4 32239.6 lineto
29747.9 32314.6 lineto
29710.4 32464.6 lineto
29710.4 32652.1 lineto
29747.9 32802 lineto
29785.4 32877 lineto
29822.9 32914.5 lineto
29897.9 32952 lineto
stroke
newpath
30647.8 32952 moveto
30722.8 32952 lineto
30797.8 32914.5 lineto
30835.3 32877 lineto
30872.8 32802 lineto
30910.3 32652.1 lineto
30910.3 32464.6 lineto
30872.8 32314.6 lineto
30835.3 32239.6 lineto
30797.8 32202.1 lineto
30722.8 32164.6 lineto
30647.8 32164.6 lineto
30572.8 32202.1 lineto
30535.3 32239.6 lineto
30497.8 32314.6 lineto
30460.3 32464.6 lineto
30460.3 32652.1 lineto
30497.8 32802 lineto
30535.3 32877 lineto
30572.8 32914.5 lineto
30647.8 32952 lineto
stroke
newpath
31247.7 32164.6 moveto
31247.7 32689.5 lineto
stroke
newpath
31247.7 32614.6 moveto
31285.2 32652.1 lineto
31360.2 32689.5 lineto
31472.7 32689.5 lineto
31547.7 32652.1 lineto
31585.2 32577.1 lineto
31585.2 32164.6 lineto
stroke
newpath
31585.2 32577.1 moveto
31622.7 32652.1 lineto
31697.7 32689.5 lineto
31810.1 32689.5 lineto
31885.1 32652.1 lineto
31922.6 32577.1 lineto
31922.6 32164.6 lineto
stroke
newpath
32297.6 32164.6 moveto
32297.6 32689.5 lineto
stroke
newpath
32297.6 32614.6 moveto
32335.1 32652.1 lineto
32410.1 32689.5 lineto
32522.6 32689.5 lineto
32597.5 32652.1 lineto
32635 32577.1 lineto
32635 32164.6 lineto
stroke
newpath
32635 32577.1 moveto
32672.5 32652.1 lineto
32747.5 32689.5 lineto
32860 32689.5 lineto
32935 32652.1 lineto
32972.5 32577.1 lineto
32972.5 32164.6 lineto
stroke
newpath
34509.8 32989.5 moveto
33834.9 31977.1 lineto
stroke
newpath
35522.2 32952 moveto
35597.2 32952 lineto
35672.2 32914.5 lineto
35709.7 32877 lineto
35747.2 32802 lineto
35784.6 32652.1 lineto
35784.6 32464.6 lineto
35747.2 32314.6 lineto
35709.7 32239.6 lineto
35672.2 32202.1 lineto
35597.2 32164.6 lineto
35522.2 32164.6 lineto
35447.2 32202.1 lineto
35409.7 32239.6 lineto
35372.2 32314.6 lineto
35334.7 32464.6 lineto
35334.7 32652.1 lineto
35372.2 32802 lineto
35409.7 32877 lineto
35447.2 32914.5 lineto
35522.2 32952 lineto
stroke
newpath
36122.1 32239.6 moveto
36159.6 32202.1 lineto
36122.1 32164.6 lineto
36084.6 32202.1 lineto
36122.1 32239.6 lineto
36122.1 32164.6 lineto
stroke
newpath
36909.5 32164.6 moveto
36459.6 32164.6 lineto
stroke
newpath
36684.5 32164.6 moveto
36684.5 32952 lineto
36609.5 32839.5 lineto
36534.6 32764.5 lineto
36459.6 32727 lineto
stroke
newpath
37659.4 32164.6 moveto
37209.5 32164.6 lineto
stroke
newpath
37434.4 32164.6 moveto
37434.4 32952 lineto
37359.5 32839.5 lineto
37284.5 32764.5 lineto
37209.5 32727 lineto
stroke
newpath
38109.4 32614.6 moveto
38034.4 32652.1 lineto
37996.9 32689.5 lineto
37959.4 32764.5 lineto
37959.4 32802 lineto
37996.9 32877 lineto
38034.4 32914.5 lineto
38109.4 32952 lineto
38259.3 32952 lineto
38334.3 32914.5 lineto
38371.8 32877 lineto
38409.3 32802 lineto
38409.3 32764.5 lineto
38371.8 32689.5 lineto
38334.3 32652.1 lineto
38259.3 32614.6 lineto
38109.4 32614.6 lineto
38034.4 32577.1 lineto
37996.9 32539.6 lineto
37959.4 32464.6 lineto
37959.4 32314.6 lineto
37996.9 32239.6 lineto
38034.4 32202.1 lineto
38109.4 32164.6 lineto
38259.3 32164.6 lineto
38334.3 32202.1 lineto
38371.8 32239.6 lineto
38409.3 32314.6 lineto
38409.3 32464.6 lineto
38371.8 32539.6 lineto
38334.3 32577.1 lineto
38259.3 32614.6 lineto
stroke
newpath
39159.2 32164.6 moveto
38709.3 32164.6 lineto
stroke
newpath
38934.3 32164.6 moveto
38934.3 32952 lineto
38859.3 32839.5 lineto
38784.3 32764.5 lineto
38709.3 32727 lineto
stroke
newpath
39459.2 32952 moveto
39459.2 32802 lineto
stroke
newpath
39759.2 32952 moveto
39759.2 32802 lineto
stroke
newpath
40921.5 31864.7 moveto
40884 31902.1 lineto
40809 32014.6 lineto
40771.5 32089.6 lineto
40734 32202.1 lineto
40696.5 32389.6 lineto
40696.5 32539.6 lineto
40734 32727 lineto
40771.5 32839.5 lineto
40809 32914.5 lineto
40884 33027 lineto
40921.5 33064.5 lineto
stroke
newpath
41146.5 32952 moveto
41633.9 32952 lineto
41371.5 32652.1 lineto
41483.9 32652.1 lineto
41558.9 32614.6 lineto
41596.4 32577.1 lineto
41633.9 32502.1 lineto
41633.9 32314.6 lineto
41596.4 32239.6 lineto
41558.9 32202.1 lineto
41483.9 32164.6 lineto
41259 32164.6 lineto
41184 32202.1 lineto
41146.5 32239.6 lineto
stroke
newpath
42571.3 32164.6 moveto
42571.3 32952 lineto
stroke
newpath
42908.8 32164.6 moveto
42908.8 32577.1 lineto
42871.3 32652.1 lineto
42796.3 32689.5 lineto
42683.8 32689.5 lineto
42608.8 32652.1 lineto
42571.3 32614.6 lineto
stroke
newpath
43396.2 32164.6 moveto
43321.2 32202.1 lineto
43283.7 32239.6 lineto
43246.2 32314.6 lineto
43246.2 32539.6 lineto
43283.7 32614.6 lineto
43321.2 32652.1 lineto
43396.2 32689.5 lineto
43508.7 32689.5 lineto
43583.7 32652.1 lineto
43621.2 32614.6 lineto
43658.7 32539.6 lineto
43658.7 32314.6 lineto
43621.2 32239.6 lineto
43583.7 32202.1 lineto
43508.7 32164.6 lineto
43396.2 32164.6 lineto
stroke
newpath
44108.6 32164.6 moveto
44033.6 32202.1 lineto
43996.1 32277.1 lineto
43996.1 32952 lineto
stroke
newpath
44708.5 32202.1 moveto
44633.5 32164.6 lineto
44483.6 32164.6 lineto
44408.6 32202.1 lineto
44371.1 32277.1 lineto
44371.1 32577.1 lineto
44408.6 32652.1 lineto
44483.6 32689.5 lineto
44633.5 32689.5 lineto
44708.5 32652.1 lineto
44746 32577.1 lineto
44746 32502.1 lineto
44371.1 32427.1 lineto
stroke
newpath
45046 32202.1 moveto
45121 32164.6 lineto
45271 32164.6 lineto
45346 32202.1 lineto
45383.4 32277.1 lineto
45383.4 32314.6 lineto
45346 32389.6 lineto
45271 32427.1 lineto
45158.5 32427.1 lineto
45083.5 32464.6 lineto
45046 32539.6 lineto
45046 32577.1 lineto
45083.5 32652.1 lineto
45158.5 32689.5 lineto
45271 32689.5 lineto
45346 32652.1 lineto
stroke
newpath
45645.9 31864.7 moveto
45683.4 31902.1 lineto
45758.4 32014.6 lineto
45795.9 32089.6 lineto
45833.4 32202.1 lineto
45870.9 32389.6 lineto
45870.9 32539.6 lineto
45833.4 32727 lineto
45795.9 32839.5 lineto
45758.4 32914.5 lineto
45683.4 33027 lineto
45645.9 33064.5 lineto
stroke
newpath
47070.7 31864.7 moveto
47033.2 31902.1 lineto
46958.3 32014.6 lineto
46920.8 32089.6 lineto
46883.3 32202.1 lineto
46845.8 32389.6 lineto
46845.8 32539.6 lineto
46883.3 32727 lineto
46920.8 32839.5 lineto
46958.3 32914.5 lineto
47033.2 33027 lineto
47070.7 33064.5 lineto
stroke
newpath
47370.7 32689.5 moveto
47370.7 32164.6 lineto
stroke
newpath
47370.7 32614.6 moveto
47408.2 32652.1 lineto
47483.2 32689.5 lineto
47595.7 32689.5 lineto
47670.7 32652.1 lineto
47708.2 32577.1 lineto
47708.2 32164.6 lineto
stroke
newpath
48195.6 32164.6 moveto
48120.6 32202.1 lineto
48083.1 32239.6 lineto
48045.6 32314.6 lineto
48045.6 32539.6 lineto
48083.1 32614.6 lineto
48120.6 32652.1 lineto
48195.6 32689.5 lineto
48308.1 32689.5 lineto
48383.1 32652.1 lineto
48420.6 32614.6 lineto
48458.1 32539.6 lineto
48458.1 32314.6 lineto
48420.6 32239.6 lineto
48383.1 32202.1 lineto
48308.1 32164.6 lineto
48195.6 32164.6 lineto
stroke
newpath
48683 32689.5 moveto
48983 32689.5 lineto
stroke
newpath
48795.5 32952 moveto
48795.5 32277.1 lineto
48833 32202.1 lineto
48908 32164.6 lineto
48983 32164.6 lineto
stroke
newpath
49845.4 32689.5 moveto
49845.4 31902.1 lineto
stroke
newpath
49845.4 32652.1 moveto
49920.4 32689.5 lineto
50070.4 32689.5 lineto
50145.4 32652.1 lineto
50182.9 32614.6 lineto
50220.3 32539.6 lineto
50220.3 32314.6 lineto
50182.9 32239.6 lineto
50145.4 32202.1 lineto
50070.4 32164.6 lineto
49920.4 32164.6 lineto
49845.4 32202.1 lineto
stroke
newpath
50670.3 32164.6 moveto
50595.3 32202.1 lineto
50557.8 32277.1 lineto
50557.8 32952 lineto
stroke
newpath
51307.7 32164.6 moveto
51307.7 32577.1 lineto
51270.2 32652.1 lineto
51195.2 32689.5 lineto
51045.2 32689.5 lineto
50970.3 32652.1 lineto
stroke
newpath
51307.7 32202.1 moveto
51232.7 32164.6 lineto
51045.2 32164.6 lineto
50970.3 32202.1 lineto
50932.8 32277.1 lineto
50932.8 32352.1 lineto
50970.3 32427.1 lineto
51045.2 32464.6 lineto
51232.7 32464.6 lineto
51307.7 32502.1 lineto
stroke
newpath
51570.2 32689.5 moveto
51870.1 32689.5 lineto
stroke
newpath
51682.7 32952 moveto
51682.7 32277.1 lineto
51720.2 32202.1 lineto
51795.1 32164.6 lineto
51870.1 32164.6 lineto
stroke
newpath
52432.6 32202.1 moveto
52357.6 32164.6 lineto
52207.6 32164.6 lineto
52132.6 32202.1 lineto
52095.1 32277.1 lineto
52095.1 32577.1 lineto
52132.6 32652.1 lineto
52207.6 32689.5 lineto
52357.6 32689.5 lineto
52432.6 32652.1 lineto
52470.1 32577.1 lineto
52470.1 32502.1 lineto
52095.1 32427.1 lineto
stroke
newpath
53145 32164.6 moveto
53145 32952 lineto
stroke
newpath
53145 32202.1 moveto
53070 32164.6 lineto
52920 32164.6 lineto
52845 32202.1 lineto
52807.5 32239.6 lineto
52770 32314.6 lineto
52770 32539.6 lineto
52807.5 32614.6 lineto
52845 32652.1 lineto
52920 32689.5 lineto
53070 32689.5 lineto
53145 32652.1 lineto
stroke
newpath
53444.9 31864.7 moveto
53482.4 31902.1 lineto
53557.4 32014.6 lineto
53594.9 32089.6 lineto
53632.4 32202.1 lineto
53669.9 32389.6 lineto
53669.9 32539.6 lineto
53632.4 32727 lineto
53594.9 32839.5 lineto
53557.4 32914.5 lineto
53482.4 33027 lineto
53444.9 33064.5 lineto
stroke
showpage
grestore
%%EOF
